<?xml version="1.0" encoding="UTF-8" standalone="no"?>
<svg
   xmlns:dc="http://purl.org/dc/elements/1.1/"
   xmlns:cc="http://creativecommons.org/ns#"
   xmlns:rdf="http://www.w3.org/1999/02/22-rdf-syntax-ns#"
   xmlns:svg="http://www.w3.org/2000/svg"
   xmlns="http://www.w3.org/2000/svg"
   xmlns:sodipodi="http://sodipodi.sourceforge.net/DTD/sodipodi-0.dtd"
   xmlns:inkscape="http://www.inkscape.org/namespaces/inkscape"
   version="1.1"
   x="0px"
   y="0px"
   width="595px"
   height="842px"
   viewBox="0 0 595 842"
   id="svg3410"
   inkscape:version="0.48.2 r9819"
   sodipodi:docname="germany-population.svg">
  <metadata
     id="metadata3833">
    <rdf:RDF>
      <cc:Work
         rdf:about="">
        <dc:format>image/svg+xml</dc:format>
        <dc:type
           rdf:resource="http://purl.org/dc/dcmitype/StillImage" />
        <dc:title></dc:title>
      </cc:Work>
    </rdf:RDF>
  </metadata>
  <defs
     id="defs3831" />
  <sodipodi:namedview
     pagecolor="#ffffff"
     bordercolor="#666666"
     borderopacity="1"
     objecttolerance="10"
     gridtolerance="10"
     guidetolerance="10"
     inkscape:pageopacity="0"
     inkscape:pageshadow="2"
     inkscape:window-width="1920"
     inkscape:window-height="1138"
     id="namedview3829"
     showgrid="false"
     inkscape:zoom="2.2541568"
     inkscape:cx="404.59635"
     inkscape:cy="651.22275"
     inkscape:window-x="-8"
     inkscape:window-y="-8"
     inkscape:window-maximized="1"
     inkscape:current-layer="svg3410" />
  <g
     id="germany-first_level_administrative_boundaries_states (2)">
    <path
       style="fill:#ffffff;stroke:#007d00;stroke-width:0.5pt"
       d="m 300.27089,313.56669 c 0.93139,2.06248 -1.8275,1.86585 -0.50136,2.75663 -2.55894,4.20519 4.24365,-2.71817 5.07675,0.40728 1.71909,0.16271 4.68153,-3.86162 5.97338,0.29641 -2.41231,1.84357 4.4803,2.95984 -0.11097,4.17955 -1.61386,2.29443 0.0422,3.90265 1.68882,0.79959 2.67916,-1.04193 1.96249,2.14102 2.26769,1.47708 -0.95149,2.79185 1.03112,3.66572 3.99542,3.00284 3.82224,-1.17586 0.73769,-3.24546 4.15257,-3.25214 -0.84692,2.14627 1.74121,1.20757 1.12704,3.10243 -1.03859,2.41878 1.76495,2.28071 1.71945,4.39227 -0.94829,0.81377 -1.74327,2.33524 -1.96834,3.84403 1.70374,0.3297 1.17535,0.99298 2.11946,2.95177 -2.56959,1.73101 -1.59291,0.21114 -1.20217,3.85428 -1.50849,1.23326 1.74878,1.54945 2.63413,2.66737 0.72092,0.65896 4.81894,0.91065 1.83871,3.34899 -2.94299,1.02479 1.54036,0.98454 1.23358,2.89591 -1.76044,2.05103 4.37162,2.63379 3.46308,1.89926 0.73023,1.27809 2.88537,2.14516 3.18802,3.93523 1.38811,0.7246 1.27043,1.61111 1.80988,3.33437 -0.93815,-0.21354 -0.49595,7.16741 -0.50907,5.30929 -0.67132,2.33061 -1.14706,2.72257 -1.51432,3.74868 -1.93155,-0.23273 3.94659,9.37909 1.36103,2.93842 1.86505,1.93261 0.24461,4.2621 -2.91183,4.36094 1.57516,-1.37179 2.18584,-3.20146 -0.57721,-1.28643 -1.13233,4.9889 -3.84121,-2.03518 -5.78873,0.21339 -2.49138,2.53862 0.8522,3.02883 1.69911,5.46426 -2.53019,0.34851 1.37236,6.17911 -3.40014,5.54783 -1.85109,0.42653 -1.88636,2.62434 -4.22826,3.14488 -2.21857,2.71871 -4.79949,-0.6288 -6.77248,1.45045 -1.74624,0.80798 -2.06723,3.36288 -5.18918,5.14992 1.90326,-0.14826 3.76268,3.17265 4.86987,4.57278 0.42253,2.1642 0.761,6.98332 2.96875,9.14364 -0.28774,2.70373 -1.30736,6.23021 -4.20173,8.90677 2.15232,1.11676 0.0535,4.15909 -0.98262,5.66032 2.02339,-0.84931 -0.27605,0.78626 1.12087,0.96048 2.26571,1.70778 -2.79608,1.86602 -2.59253,3.68969 2.10871,-0.17165 1.47377,1.41278 1.61636,3.04793 1.50971,1.64194 -2.59283,2.35171 -3.06138,4.00614 -0.60146,0.3495 -1.43856,-2.41876 -4.06967,-0.6333 -2.51722,4.26645 -8.99376,-0.0342 -10.77426,3.57877 -1.70769,0.40593 -4.81084,4.0082 -5.14176,2.56025 -2.22099,1.91784 -5.19208,-0.0374 -6.20427,2.3878 -3.15612,0.66861 -6.34414,5.22131 -10.90966,1.91085 -9.0196,-3.26864 -18.31295,-3.25871 -27.76305,-3.34416 -2.67539,2.10274 -9.26627,2.68667 -8.64389,-0.27078 3.31434,-0.0667 -3.22845,-0.9144 -2.66215,-1.67217 -2.49015,-0.62479 -3.48876,2.04611 -0.25492,1.99661 -1.19683,1.70169 -5.4689,0.15617 -4.9847,-1.31125 -2.6581,-0.6021 2.47,-2.5031 -1.14661,-2.5655 -1.3988,2.34105 -2.50952,-3.64356 -3.1593,-0.67369 -0.74286,2.0199 -1.91708,0.56278 -1.9348,-1.01416 -2.35851,-0.38951 -3.44695,-0.14575 -2.99174,1.28133 -2.59932,-0.55427 -6.74014,1.25701 -6.94373,3.17873 -3.07326,1.21013 -3.14394,2.95688 -0.15917,3.74378 0.78868,0.81631 3.81429,0.57178 4.47116,-0.22668 0.80119,-0.58197 5.75945,-1.05311 5.45938,0.19134 -1.507,-0.44479 -1.84475,5.10225 -3.18759,2.02452 -1.01301,-2.07885 -5.25974,-0.14664 -6.00855,1.48848 4.11572,0.33172 -3.02074,1.55237 -4.28145,0.93953 -2.28379,1.25131 -6.19403,-0.0787 -6.4195,-1.91992 -3.24773,0.76746 -4.64923,-1.33538 -7.63709,1.12062 -2.80953,0.11087 -4.1795,2.19352 -6.49239,1.79702 -3.06394,0.66587 -6.12124,0.17597 -8.66016,0.35737 -0.58012,-1.99863 -2.24369,-2.37792 -4.9258,-2.02449 -2.33785,0.52498 -4.59194,2.33375 -7.92599,2.24673 -2.39119,0.44397 -6.5174,-2.78157 -1.51762,-1.41402 -0.19379,-0.86362 1.38729,-2.59844 -1.39736,-1.87994 -4.60181,2.07887 -4.49279,-2.46629 -8.64194,-4.07219 0.16012,-2.83812 0.68083,-5.30912 0.44554,-8.55718 1.36974,-2.57751 0.40227,-6.69631 4.23524,-8.56975 1.21347,-3.54232 -4.89056,-4.38034 -2.55611,-8.34007 1.65274,-4.49853 6.44402,-6.83632 7.51452,-11.80143 4.97921,-0.93159 0.33081,-6.19409 4.46893,-8.69288 1.91353,-2.94645 2.5994,-6.6479 4.69867,-10.12877 2.75808,-2.07832 8.25317,-3.37956 8.71511,-7.3584 3.28366,-0.0758 5.28513,-2.07419 8.06429,-3.61066 1.45608,-5.97764 7.87234,-7.74068 12.44709,-10.85684 0.39729,-3.24612 6.44721,-4.74228 4.84097,-8.24584 3.96752,-2.72399 -0.58003,-3.37761 4.81466,-4.84306 6.40194,-2.24441 0.52389,-2.31846 2.6437,-4.15121 7.15446,-3.57732 -3.69876,-0.88859 2.09215,-3.15564 4.14472,-3.66355 -6.1382,-0.39778 -2.12465,-3.71951 -4.68187,-2.86914 0.79517,-6.82906 4.32009,-4.52641 3.20293,3.58168 11.94903,0.20542 7.16031,-2.72966 3.82095,-2.80747 8.74754,-1.4792 8.22631,-1.16388 -3.66192,1.94956 0.89032,4.18898 3.20839,3.58319 1.63911,0.8024 6.14258,-2.74414 4.51361,-0.044 4.35178,-1.41568 7.23421,0.19971 3.02944,1.14238 -3.00528,-0.89911 -3.42245,4.30657 -5.09402,4.04291 2.11706,0.98778 6.06129,-1.36901 7.64971,-2.77866 3.69984,-0.85888 2.35217,-2.27811 3.94982,-4.12872 3.41931,-0.34212 6.74672,-1.02287 8.41319,-2.5683 4.17052,0.32911 1.42514,-2.46667 2.10487,-1.54058 0.72382,-3.37029 9.66516,-1.44096 11.02368,-4.85727 0.85259,-1.11268 1.66339,-2.93555 4.93643,-2.56432 4.90768,-0.84444 3.71507,-0.72603 5.59935,-3.13335 1.43701,-3.47446 -7.68441,1.97935 -2.68753,-1.22367 -0.18345,-0.3852 -7.18211,1.29603 -2.72902,-0.46004 0.57247,-1.17758 6.56779,-3.27769 9.01884,-2.48167 3.03455,-2.41491 3.89144,0.14167 6.4846,0.0636 -2.15495,-2.08849 5.72968,-2.67478 5.06875,-2.30426 z"
       id="path3413"
       inkscape:connector-curvature="0" />
    <path
       style="fill:#ffffff;stroke:#007d00;stroke-width:0.5pt"
       d="m 332.01454,269.86616 c 1.2041,0.12637 3.66125,-1.66625 3.54762,1.01205 3.11124,0.2429 3.64265,0.20876 4.52422,2.87179 0.79842,-0.0148 0.53565,2.64231 0.81716,1.92474 2.65359,-1.3486 2.69951,2.18149 4.35057,1.53055 1.08793,-0.44865 2.58122,1.08629 2.35507,3.02254 -0.78586,1.26041 0.078,1.64571 0.007,3.48827 2.68497,-0.29199 4.13478,1.65509 4.83475,-1.8268 0.93822,-0.0281 5.42504,0.28613 3.08582,-2.07861 -1.12709,-0.17155 -2.63234,-1.15828 -3.74496,-2.12642 -0.62945,-1.68608 1.55687,-2.43759 3.09615,-3.1183 2.1886,-1.42057 3.73516,-1.30552 5.74546,-0.49514 1.2005,3.22286 1.3583,-1.31616 2.73069,1.36443 2.16275,-1.99738 2.5311,-0.33705 3.22955,-0.36051 0.25911,1.56495 0.17872,5.3002 1.97785,3.7294 1.46416,-0.19629 2.54908,1.67059 2.76377,-1.59647 -0.0653,-2.78101 0.41226,-4.90076 -0.13033,-7.65633 -1.47556,-2.73892 3.3969,-1.6927 3.12194,-4.05782 3.28571,-0.54452 3.12847,0.64045 2.73704,3.03722 0.11024,2.51092 2.54375,0.63092 2.38659,3.3078 1.15359,1.4513 1.78323,0.78601 3.51281,-0.14618 2.65899,1.3203 5.47541,-0.41393 6.04501,-0.8469 2.32968,1.8669 1.3628,2.25334 4.5541,0.6939 2.36186,-1.22493 1.35854,2.17918 3.27688,2.02524 -0.8079,3.01722 2.33641,3.41974 3.13935,4.19004 1.47115,-0.63253 5.59809,3.94904 2.08278,4.48526 -0.0817,2.50624 5.05083,2.96895 5.18673,6.78088 -2.49877,3.67258 2.80109,3.76367 2.72531,5.73887 -0.5694,1.14034 3.30077,1.18302 3.32195,2.09717 1.21453,1.90984 4.27821,1.91856 4.70767,3.05047 2.37151,-0.52103 2.60519,1.63515 1.44007,2.75575 1.9678,0.57331 5.27345,1.98783 2.21584,3.77077 -0.74741,2.10819 -2.56978,2.43787 -2.40742,5.19436 -3.61551,0.36503 -2.38139,3.05479 -0.51899,4.48344 2.27016,0.61378 4.48946,2.15547 3.54871,3.59114 -0.0819,2.11026 2.12515,0.62714 2.20957,3.0084 -0.0414,1.77112 1.09405,4.17781 3.54039,3.83144 -0.41159,2.84715 -0.20404,3.75347 1.53646,5.79415 3.10115,-0.0618 3.86438,3.0079 6.22868,4.73236 3.79592,0.91855 3.71881,-0.4136 7.03068,0.11864 2.4376,1.3461 3.49297,2.56218 4.88996,4.52023 2.22768,1.4782 3.5272,4.82537 6.1887,5.23301 0.11105,4.42751 5.34046,1.5884 7.74244,3.83807 1.88184,1.66232 4.3746,2.95541 3.31403,5.67768 -0.83419,0.25029 3.16002,1.32054 4.5128,2.50308 0.41922,-1.81106 4.61908,-2.2495 5.4969,-0.40776 1.7556,-0.71513 2.00989,4.29388 5.06949,3.30295 2.67014,-1.28278 2.4124,2.75876 4.6863,3.11403 0.42278,1.48575 0.94956,2.07471 2.09407,2.72582 -1.60979,1.5071 -3.23738,2.30518 -0.93621,3.65268 0.3397,2.75001 0.90127,6.18071 -2.65267,6.60278 -0.50134,1.00163 -2.78621,3.44443 -5.27937,0.5701 -2.77836,-2.3465 -5.01977,-0.64709 -7.85251,-2.9677 0.18705,2.82082 -4.8498,0.0325 -2.8525,3.3547 0.98748,1.14311 -1.92851,3.40176 -0.23048,5.05049 -1.92241,4.79765 -8.1137,7.09303 -13.21367,6.49747 -5.54934,-0.37872 -8.91223,4.44807 -14.18362,4.45394 -0.78546,2.74621 -4.13223,3.32251 -5.44015,4.76874 0.67433,3.63499 6.50668,5.24234 6.29372,8.78459 3.18448,0.2698 3.99009,3.65652 5.74929,6.35677 -1.844,2.08478 -2.13141,3.72491 -3.57577,5.29449 -0.34447,2.77271 4.09935,1.21342 5.48593,1.56143 1.80017,0.60018 3.5491,3.54661 3.40966,5.13141 -1.9688,1.30423 -1.89179,2.47283 -2.05679,3.89393 -0.5951,1.35821 1.0333,4.55879 -2.08764,4.44007 -1.30776,-1.62382 -4.24587,-0.69566 -5.9933,-3.47687 -0.99425,-1.45423 -4.64985,-1.50636 -4.37224,-3.74899 0.81916,-1.46142 2.63021,-1.16309 -0.26312,-2.50957 -1.00049,-1.87746 -0.12227,-2.01183 -3.60056,-2.62638 -2.67404,0.12008 -5.48437,-1.06811 -6.36334,2.17967 -3.01544,0.79291 -5.65549,-0.97447 -6.55948,-3.82795 -3.18244,0.80236 -5.60592,0.0319 -8.32622,1.00715 0.44743,-4.5528 -0.3406,-1.87221 -3.99448,-1.00734 1.27855,1.7825 3.58961,6.92901 -0.19719,4.99813 -4.95663,0.82605 -7.4817,-1.37615 -12.06727,0.38228 -3.05432,1.30206 -4.33839,1.5329 -7.30845,0.88899 -3.55238,0.25509 -7.36902,-0.54099 -7.69198,3.67908 -1.90278,3.50961 -8.09558,-0.46058 -9.63657,3.97952 4.17391,2.12344 -2.73863,0.2652 -3.63433,2.42397 -0.24204,1.87995 -6.57777,4.22755 -2.66146,0.55041 -3.35415,-1.74786 -7.16314,3.87515 -11.21568,2.4381 -2.58623,1.44388 -2.29455,-2.45732 -3.62294,-3.58965 -1.5828,0.0996 -4.75462,-0.0115 -0.88006,-1.87088 1.10428,-1.50986 -3.83211,-1.21596 -5.38976,0.21139 -1.3687,-0.352 -3.94193,-0.56028 -5.10424,-1.39531 -2.89449,0.0222 -4.03157,-0.0113 -5.74539,2.25428 -1.8017,0.22302 -6.8056,0.45111 -3.62354,-2.00673 -3.36002,0.21087 -1.02698,2.73827 -3.04863,4.82297 1.21784,1.11582 1.6239,1.32395 1.2572,3.61376 -2.71427,1.76302 -2.51895,3.48706 -4.84265,4.73748 -2.99183,3.48296 -6.93607,5.8079 -11.43782,6.31958 0.94215,-1.6179 2.69876,-2.1091 2.42843,-3.72964 1.65071,-1.42056 2.8009,-3.77317 0.0326,-2.46056 -1.24016,-0.0144 -3.86202,2.44794 -5.12356,2.41955 -1.75102,-2.89815 1.42729,-2.39779 0.62384,-5.03315 -2.05311,0.87875 -1.88453,-2.34593 -4.67095,-0.56481 -0.63058,-1.0505 -1.70884,-1.63092 -1.10895,-2.27904 -2.23438,1.35489 -4.66006,1.10314 -6.55476,1.56782 -3.99712,1.32447 0.73751,-2.51596 -2.78321,-1.96624 -3.65771,1.53895 -4.19552,5.17801 -9.19945,4.40749 -7.34825,2.60166 -4.48324,-1.589 -0.20546,-2.7563 0.45776,-1.24123 3.34973,-1.07943 5.12691,-1.63389 1.49341,-0.29695 3.45281,-0.6328 4.86532,-2.69836 2.38093,-1.88556 4.67935,-2.35921 8.10472,-1.8677 3.12195,-0.65232 4.90593,-3.05597 7.40136,-2.93423 -0.0792,3.95882 0.71314,-0.19824 2.64219,-0.18852 2.5888,-1.59816 0.24439,-3.28756 1.16301,-4.89687 -3.9399,-0.29596 0.37561,-2.39611 1.78866,-3.42047 -1.16297,-1.80538 -2.04962,-0.77502 -0.90556,-2.0076 -2.1596,0.61645 1.18696,-2.26773 0.69887,-3.88228 -1.89486,-2.00049 1.68513,-3.71094 2.55552,-6.14027 0.0741,-2.27821 1.86232,-4.7667 -0.61988,-5.98587 -1.39299,-4.04115 -0.48093,-6.3058 -2.32201,-8.71317 -1.86129,-1.70625 -2.63042,-3.24402 -4.04584,-3.89624 4.01512,-0.96727 3.16294,-4.43407 5.16208,-4.35952 2.58164,-2.31104 3.76365,0.72512 6.74038,-1.25059 0.29064,-0.59946 3.47473,-2.84471 3.36463,-2.76303 2.48363,-0.70624 4.83382,-2.93761 3.15124,-5.9465 3.6019,-0.87674 -3.0425,-2.94892 -0.97864,-4.36336 -0.4879,-3.99407 4.79623,-0.37527 5.01884,-0.14451 1.63769,-1.99205 4.31836,-3.73565 2.56387,-0.61599 -1.42622,1.12958 4.9091,-1.25414 2.70423,-3.12578 -0.70984,-1.44318 -2.43911,-1.29902 -2.29846,-2.83297 0.92451,-1.62975 0.56202,-2.3044 1.57714,-3.6052 -1.01966,-1.81645 2.19389,-4.21996 -0.38552,-5.96944 2.03711,-1.43023 0.61452,-2.18763 -0.14523,-3.56459 -0.0487,-0.9199 -2.64361,-2.30324 -2.95162,-3.69487 -0.93037,-1.16223 -5.36686,-2.77013 -4.75108,-1.66653 1.76268,-2.75343 -2.42431,-1.63213 -1.51835,-3.74981 3.5378,0.0571 1.09082,-4.1336 -0.73517,-2.57076 -0.2042,-2.21485 -4.88497,-1.49155 -2.57474,-3.348 -0.90556,-2.80629 -1.62688,-2.76083 0.69116,-3.4891 -0.421,-2.04409 -0.31584,-2.89029 -1.62813,-3.29675 0.44271,-0.85024 -0.93549,-3.10396 2.43368,-3.40353 -0.87254,-1.97633 -3.26018,-2.52261 -2.46583,-4.6158 0.72152,-2.08733 -1.97861,-1.1777 -1.12704,-3.11382 -3.16722,-0.32275 -0.53542,1.33978 -3.56843,3.02206 -3.32578,0.67804 -5.95659,-0.11758 -4.27885,-3.18715 -1.26701,-0.31796 -0.0458,-2.76962 -2.5852,-1.05645 -2.02354,3.28678 -3.4168,0.47541 -1.07985,-1.05941 3.32831,-1.79811 -3.08574,-2.09893 -0.4743,-4.6552 -2.1727,-3.91302 -4.3163,1.66186 -6.64847,-0.0463 -0.26866,-2.11439 -7.30889,3.94016 -4.40256,-0.28665 -1.01037,-0.40194 0.93161,-0.99749 0.82418,-2.62973 -3.64766,-1.48768 -5.53472,3.42846 -7.07839,1.60118 -1.79612,-0.33169 -3.75965,0.23817 -6.15721,0.0886 -3.74912,1.3191 -7.34258,2.08025 -9.1364,3.67038 -0.46234,0.79999 8.02468,-1.28058 2.22288,0.70133 1.56643,0.36464 7.09817,-2.34794 3.42384,1.3399 2.28295,1.8253 -4.32814,1.88119 -6.46817,2.347 -2.78813,0.61822 -1.97387,2.71979 -4.05783,3.52879 -3.07604,1.41861 -9.91591,3.21622 -10.79519,0.49073 3.66621,-1.51262 2.06413,-2.45222 2.67539,-3.94214 2.17366,-0.40487 6.35445,-4.00009 1.70055,-3.10208 3.95146,-2.88021 0.33595,-0.76777 -0.89923,-2.40302 1.42332,-2.69647 -1.08484,0.42385 -1.6083,-0.81371 -1.40448,0.11005 -9.1e-4,-1.68429 -0.51036,-3.89028 -0.62686,-0.77315 -1.16741,-3.04817 1.68996,-2.77705 0.2101,-2.25401 -5.24439,-1.20749 -3.72249,-2.9728 1.65899,-3.19575 8.48982,-4.02048 10.96244,-3.03174 -2.0171,2.67868 2.78108,-2.06555 2.51544,-2.09854 3.5448,-0.75162 7.45787,-1.03007 11.0282,-0.63093 1.70323,3.14763 7.00897,0.16858 8.77191,-0.94158 -0.21481,-3.44005 0.32214,-2.70894 -0.50286,-5.45415 0.12484,-1.70825 4.05451,-0.20426 5.68079,-0.92425 5.38679,-0.82998 2.12917,-1.38765 4.77839,-3.33765 4.99539,-0.72027 4.22409,-4.44648 6.09572,-7.01327 -0.60055,-3.19274 3.18009,-2.42565 5.96039,-1.79265 3.62844,-1.35302 8.82732,-4.54908 10.63433,-9.43264 1.34529,-0.42231 3.78847,-4.92143 4.20964,-2.86143 z"
       id="path3415"
       inkscape:connector-curvature="0" />
    <path
       style="fill:#ffffff;stroke:#007d00;stroke-width:0.5pt"
       d="m 473.37511,140.09646 c 4.07387,2.68011 4.72337,3.22346 5.97718,6.81156 5.51774,1.70405 8.36543,7.09615 12.5074,10.50806 -1.29259,4.09064 -0.52402,6.3512 2.66196,7.10251 2.51422,3.92085 1.35992,1.09418 4.61421,7.65112 -0.14571,-0.73502 -0.24243,4.39828 -0.97504,6.28124 -0.32325,3.41419 -4.32445,10.03574 -2.94562,1.73366 -2.84058,-1.7206 -2.50058,-5.23302 -9.17882,-2.4985 -1.44535,-3.27636 -6.7659,0.78028 -8.52024,-5.50227 -8.43838,0.91877 -1.55055,9.80076 -7.40151,10.75137 -4.20908,1.17545 -7.72173,-9.5071 -12.74214,-4.8733 -2.83318,-4.39265 -9.41942,3.85706 -11.93844,-4.13358 -7.40287,-1.97699 -11.4335,6.5516 -13.10843,4.5965 0.0823,1.43417 -11.62932,-4.9906 -6.37938,-6.3279 3.02992,-4.37118 0.22965,-10.38673 6.22365,-14.55149 5.11695,-6.60736 -9.08118,-0.62934 -1.50426,-8.69069 6.50796,-2.21729 -2.01679,-2.42419 3.94684,-5.18993 6.33832,-0.50858 7.49833,1.04254 7.82045,-3.34684 4.35695,-2.58721 8.93314,-3.55781 11.51585,-2.82676 4.40111,2.9396 12.05908,0.33149 15.77124,2.56992 6.90724,1.66219 -0.6628,-0.51766 3.6551,-0.0647 z"
       id="path3417"
       inkscape:connector-curvature="0" />
    <path
       style="fill:#ffffff;stroke:#007d00;stroke-width:0.5pt"
       d="m 477.69435,124.44458 c -0.006,0.73239 2.29151,1.51444 2.12714,2.07367 3.24414,0.0113 6.23249,2.16276 9.09457,1.50519 2.68717,0.52548 7.67551,1.20923 3.22093,3.47549 -1.59401,0.18092 -5.32099,1.18986 -1.23386,1.59926 3.09378,1.33279 5.71184,1.75681 7.72711,0.17193 2.37034,1.12903 4.93333,-0.9536 6.36537,0.43179 -0.18013,1.68547 3.89113,2.25939 1.3829,2.99754 -1.11652,1.03485 -3.05526,0.65731 -3.55518,1.92382 0.57755,1.11457 2.33941,2.6448 0.96647,3.18879 1.01675,2.08084 -2.51622,1.88655 -3.5334,2.26314 -0.12502,0.85131 -4.94856,-0.62566 -4.8095,0.88976 2.06033,2.67038 1.46985,5.32368 2.7801,7.61043 4.18031,2.20834 6.20815,6.74585 9.86019,8.90781 3.33943,4.17829 5.88019,7.70086 10.40201,8.69802 1.17225,0.48259 2.53048,2.10294 2.7215,2.42312 -1.76618,1.20045 -1.67632,2.91177 -0.4275,4.04888 -1.06118,1.67454 -5.90537,3.33853 -3.99405,6.26485 -0.18627,1.64892 1.84027,3.48245 1.19818,4.77593 1.2443,0.98836 7.85033,-0.17234 4.63871,3.46195 1.12225,1.4515 -2.19857,3.4426 -0.1592,4.96852 4.75372,-0.38327 1.39085,3.44454 0.51522,3.98315 -1.06324,2.05741 0.25962,3.14553 -2.21182,4.80213 -1.42475,1.20976 -6.08316,2.29287 -2.12022,3.60507 2.81204,0.77446 1.52698,3.75551 3.93123,4.46699 2.79788,0.95613 3.17445,2.23773 3.47365,4.77676 -1.54376,1.26238 -3.28314,-1.18793 -3.23835,1.51872 -3.3603,1.09959 -4.61673,-2.64069 -7.31135,-0.97694 -2.48728,-1.05495 -6.05189,0.47768 -6.95572,0.5005 -1.89396,-0.85708 -7.15504,-1.34197 -7.22646,0.0685 -2.71191,0.78432 -2.16601,2.51241 -4.40572,2.50538 1.69059,1.33695 -1.56417,2.93087 -2.18272,3.44113 -0.2821,2.24602 -1.89188,-1.09053 -4.28562,0.99082 -3.58727,0.51618 -6.82414,1.88167 -11.27976,1.8292 -4.13124,0.2273 -7.25277,0.54551 -9.90918,-0.94057 -3.37357,-0.59539 -3.75446,-0.0547 -7.27711,-0.004 0.3501,0.0199 -3.42773,0.46668 -3.867,1.37253 -2.16803,-0.20141 -5.69537,-1.89925 -3.9246,-1.74033 -1.37656,-1.47545 1.59981,-1.63885 0.021,-2.429 -4.2153,-1.2443 -2.25329,-1.29257 -5.1807,-2.57056 -3.94852,-0.13706 -7.3914,-2.91028 0.0369,-1.22392 0.96411,-0.25653 3.95702,0.23404 0.16982,-1.11099 -0.81956,-0.35171 1.07043,-0.65378 -2.7798,-2.0034 -0.007,-0.54595 -0.75051,-1.02451 -4.52036,-1.73777 -5.63889,-1.68775 -1.90588,-1.16858 -5.34119,-2.36167 -6.06962,-2.75467 -9.61995,-5.25052 -15.79104,-9.53956 -2.31633,-2.22527 -5.98445,-5.79449 -7.16429,-4.97891 -2.58571,-1.12364 -4.01922,-4.7448 -5.63772,-4.45546 -2.28546,-2.44596 -5.48558,-5.84948 -5.28554,-8.49619 0.40384,-0.65586 2.03045,-2.2501 0.30689,-3.37364 1.49082,-4.31585 0.57794,-7.13731 1.26207,-9.95562 1.18366,-2.2123 -0.0812,-2.51538 -0.71875,-3.16252 0.0255,-2.52367 -2.16352,2.89739 -1.41685,-0.95515 -1.4157,0.99579 0.61836,-6.3314 0.7853,-4.79042 2.33818,-2.60481 -0.0504,-4.84825 1.1333,-6.76973 0.98195,-1.51502 2.27077,-4.99373 0.43988,-5.63608 -2.41722,3.05914 -0.94193,-0.67147 -2.86133,0.76401 -0.92666,-0.59217 -5.43964,1.31653 -6.67326,-0.85402 1.89026,-1.71982 -2.58333,-2.03665 -3.73537,-1.75065 -0.95418,-1.32736 -1.31299,-2.40882 -4.37276,-1.86564 -1.95412,-2.22904 -7.08326,1.72634 -6.46357,-2.26694 3.21641,0.89818 3.63554,-1.74298 6.59883,-0.45554 2.47036,-1.3808 0.0629,-3.27795 4.31495,-3.95344 1.35894,-0.0282 4.93096,0.7243 4.57888,-0.76326 0.59453,-0.68228 5.26947,-1.47843 6.65807,-3.49049 1.65963,-2.2293 4.55107,-1.55206 6.85073,-2.26639 2.27235,0.15576 5.1652,-0.84982 6.18787,0.46697 2.42048,-0.9968 7.66511,-3.11955 7.90303,-2.16227 4.37846,-2.03607 0.0254,1.4162 4.65181,-0.99733 2.40347,-0.42725 6.0099,-1.96426 6.90416,-1.96065 -3.65207,1.51962 2.82279,-0.31135 3.81584,-1.06321 3.35393,-1.49572 7.81377,-1.9635 10.23274,-1.85496 2.94317,-2.08399 8.59224,0.69398 10.07127,-0.64908 0.0731,-0.18846 3.88692,0.21422 3.29024,-0.23891 1.7617,-0.015 -0.64618,-0.78789 1.71157,-1.15384 0.0685,-0.50328 5.01153,0.4831 3.21183,-0.45117 1.96737,-0.70928 5.22147,0.50716 8.18173,0.31256 -2.71495,0.0332 -3.39403,-3.01358 -0.4277,-0.52774 5.70897,0.25728 -1.10177,9.43166 -0.88451,13.34282 -5.27195,4.39631 2.67632,4.3255 -4.53041,3.22993 -3.77024,-2.30867 -11.34163,0.44767 -15.77124,-2.56992 -2.82273,-0.55767 -7.55621,-0.11723 -11.87963,3.29224 1.05834,3.9011 -2.02318,2.2128 -7.45668,2.88142 -5.85362,2.68847 2.63905,2.77635 -3.94684,5.18993 -7.53192,8.12911 6.99609,1.92893 1.34799,8.93895 -5.9921,4.06842 -2.86387,10.05976 -6.06738,14.30323 -5.804,1.85454 8.98524,8.42393 7.4591,7.04342 -0.97081,-0.32568 8.00886,-8.32526 12.6585,-4.20567 3.55102,5.3446 8.72215,0.71519 12.8242,1.9404 4.74507,-0.99673 7.46598,7.57975 12.51485,5.82541 2.14976,-3.26969 -0.49374,-10.80784 7.8362,-10.75911 0.11569,9.18034 6.54755,1.43474 10.18489,5.15268 2.45465,-0.74917 6.13435,1.52707 5.54712,4.67418 -0.55278,7.61143 4.19039,-2.89059 2.94786,-4.6561 2.31822,-1.49233 0.20373,-6.964 0.88184,-5.9504 -3.80911,-6.31904 -1.11006,-2.44379 -5.01888,-7.50215 -2.93883,1.13781 -2.82051,-4.03627 -2.06792,-6.59545 -4.28294,-4.47895 -8.85139,-8.55802 -13.85538,-12.00892 2.76791,-2.88066 -8.00602,-3.46047 -3.4507,-8.80503 1.09388,-3.96932 2.18775,-7.93864 3.28163,-11.90796 z"
       id="path3419"
       inkscape:connector-curvature="0" />
    <path
       style="fill:#ffffff;stroke:#007d00;stroke-width:0.5pt"
       d="m 219.86364,118.71196 c 4.08763,0.74659 6.42559,-0.4293 6.26182,1.79074 3.36973,-2.61368 4.97909,1.64721 9.13392,-0.0219 4.21357,2.27323 9.16325,1.50932 13.34121,4.96229 2.49514,0.11758 8.44695,1.80533 7.04655,3.09986 0.45401,0.99741 1.6282,2.7349 2.95962,6.00651 0.12822,2.74189 -5.97601,2.28725 -8.74334,-0.99887 1.90048,3.43974 -7.26282,-0.68432 -8.62871,-2.87095 -4.37959,3.88277 -5.06604,-2.90419 -9.16259,-3.62036 -2.19175,-2.02098 -3.61438,-6.28644 -8.28265,-5.99231 -1.40629,0.10322 -7.75208,-1.44569 -3.92583,-2.35498 z"
       id="path3421"
       inkscape:connector-curvature="0" />
    <path
       style="fill:#ffffff;stroke:#007d00;stroke-width:0.5pt"
       d="m 327.21376,101.53608 c 5.71332,2.9267 -4.13377,1.21202 1.14459,3.78337 3.62441,2.46841 8.52512,7.45774 7.57889,6.06874 -1.23632,-0.45718 -0.4307,3.94863 -0.15966,3.79046 -5.88006,-3.12889 -2.67775,3.18591 -0.54217,4.75323 2.01242,2.52281 5.58809,3.66065 7.24725,4.86439 1.6355,4.30691 7.62461,6.84982 6.33824,6.98368 -3.61773,0.75466 -4.96655,6.24676 -9.96195,4.55193 -5.50279,-1.26627 -9.54039,-3.60882 -14.37787,-7.32439 -5.60184,-1.48621 -6.03896,2.30485 -7.41092,3.27829 -4.31068,3.97197 -7.66584,-2.95303 -12.45947,0.10725 0.94061,-0.89582 -1.58355,-11.37531 -7.80152,-4.93594 0.0421,-0.42767 -10.94362,-6.17319 -8.81811,-10.64667 -4.98308,0.0585 -3.82341,-3.87666 -5.0702,-6.68165 -2.84542,-0.63028 -2.78508,-5.09846 -0.72251,-8.5283 4.67042,-0.35564 1.99387,4.60702 8.1929,3.69366 0.36582,-1.01717 4.84051,-3.4541 6.68846,-4.83777 1.12963,-3.080669 13.4091,3.24259 10.355,-0.612232 4.29917,-1.352262 13.25805,2.260982 8.97331,-1.085876 3.09763,-0.190974 7.99804,2.851878 10.80574,2.777828 z"
       id="path3423"
       inkscape:connector-curvature="0" />
    <path
       style="fill:#ffffff;stroke:#007d00;stroke-width:0.5pt"
       d="m 307.35917,210.70169 c 2.17747,0.30769 5.73504,-1.12571 6.07465,1.32799 3.46332,1.09362 0.96569,3.76356 -1.19205,2.84233 -1.56001,2.58938 1.47203,3.49941 0.34555,6.18209 2.59083,2.63032 -5.20748,2.82515 -3.23556,5.20614 -3.11096,1.8258 4.02224,1.96882 4.8111,2.16679 4.14746,1.95224 6.28622,-4.43705 2.92703,-0.97337 -2.8486,-2.57716 0.36165,-3.44908 2.94975,-3.98444 -0.13593,-3.77618 4.6438,3.06752 2.66212,-0.78521 2.26777,-1.7475 4.52889,1.1657 3.81176,3.41306 1.25763,2.49363 2.74309,3.20539 5.87233,3.82788 -0.70888,2.00787 1.78282,2.89609 3.54507,3.37488 2.17503,1.25209 3.65921,1.8572 2.47588,4.26533 -0.32362,3.82903 -0.68654,-1.65313 -3.07712,-0.37346 0.52552,1.61544 2.3572,2.33049 0.94978,4.28641 -1.16434,1.53324 3.49284,2.27216 1.39637,3.56696 0.35744,1.96969 -3.30566,0.97472 -4.05756,0.78266 -4.16149,-1.09336 -3.83829,4.23935 -1.52972,3.9811 -1.96877,1.64449 -5.28062,-0.78248 -5.76055,1.84307 2.86152,-0.93804 0.40811,0.74499 4.27155,0.78345 1.99765,1.11589 -2.01115,2.67243 -1.18209,4.08577 -2.81171,-0.57033 -5.22755,3.88237 -3.93105,3.17899 -1.28505,0.89535 -0.74609,3.15162 -2.1305,4.60559 -2.66691,0.71361 -3.49402,4.24706 -0.78765,2.96699 3.84719,0.80989 2.0215,-4.09755 7.36611,-3.02941 1.81376,1.71383 -0.30872,2.24598 -0.97112,3.44951 0.66109,4.21617 -2.87739,8.31904 -5.97463,11.48533 -3.35895,1.68101 -5.82893,4.24727 -9.20962,2.18053 -2.92955,-0.0361 -2.717,2.84586 -3.83719,4.84968 2.30188,3.86726 -7.84623,4.72297 -5.8601,6.36956 0.60098,1.44407 -4.79198,1.62862 -6.53153,2.21449 -1.9042,-1.39215 -4.45474,0.49578 -1.94191,1.84282 -1.52055,0.50953 1.52356,4.2459 -2.69064,5.29399 -2.42315,0.46281 -5.72414,2.54668 -6.97152,-0.73704 -4.98048,1.03371 -10.37703,-0.89088 -12.77387,3.47532 -0.63731,0.63863 -2.38929,-2.03411 -5.83051,-0.20094 -2.70548,-1.14424 -8.06937,4.68834 -4.69264,3.87735 3.45742,-0.17054 2.68727,3.27554 1.07106,2.58174 -0.46511,1.53683 0.017,3.28355 0.53223,5.02823 -1.59832,1.33091 1.72026,1.53044 1.10935,1.26484 3.16884,-2.4099 -1.61232,2.87728 2.68338,1.03985 0.91936,0.7635 -0.87484,2.31404 0.75921,2.69565 -0.81651,1.99245 -5.80105,2.568 -3.27844,4.0253 -3.47988,2.06907 -1.85196,3.1247 -1.93013,5.34844 0.40618,1.109 2.02508,2.21951 -2.14826,1.73723 -1.3108,1.1972 -4.37542,2.16838 -6.82334,2.43839 -3.46957,0.10752 -1.62444,3.22076 -4.23591,3.65349 -2.1515,0.94208 -5.60237,3.84043 -8.22049,3.83074 -1.11722,-0.6375 2.08031,-3.46097 4.05086,-5.00045 2.55016,2.16737 4.04067,-4.24867 -1.55536,-0.2831 -0.43759,-2.58711 -2.14057,-0.5177 -4.86432,-0.26362 -2.79349,0.19961 -5.71746,-0.4099 -5.39987,-2.86861 2.91781,-1.7264 -1.23974,-1.96601 -5.32072,-0.28611 -3.33869,0.7693 2.55799,3.76582 -2.05447,4.50135 -4.62012,1.68408 -8.27769,-3.00154 -12.75445,-1.52123 -2.03286,-0.79005 -5.08669,-5.07317 -0.10511,-5.3019 4.08494,-0.94435 9.87245,-4.83845 2.06053,-3.19446 -2.73392,-2.10807 -0.0261,-3.87494 -3.75147,-4.11284 3.16173,-3.00038 -2.23466,-6.29099 -5.84021,-6.32425 -7.99456,-0.29236 -15.97604,6.5417 -23.6026,3.94276 -2.82985,-2.50698 -6.65421,-3.75984 -0.93322,-5.0887 -0.001,-1.82286 3.61158,-2.09867 5.6147,-0.81391 1.55498,-3.15944 -4.26644,-2.46784 -0.79836,-4.85709 3.59251,-0.69668 5.8313,-2.45151 8.37001,-1.37389 3.8936,-1.70823 -3.04448,-1.14215 0.98268,-2.73348 3.99747,1.84588 7.16547,-3.09543 2.62471,-2.97953 2.68951,-3.2165 -10.17501,-2.14919 -4.58442,-2.669 -3.20422,0.2299 -1.12794,-2.03819 1.051,-2.37775 -3.23917,-1.28849 -0.60746,-3.97761 3.18014,-5.18681 0.60423,0.9584 6.35082,-0.58554 5.84297,-0.65508 1.2899,-0.29403 4.39348,-3.80827 0.36534,-2.93935 3.65299,-1.45351 -3.8262,-2.46422 1.03405,-4.59219 2.91853,0.0759 1.9776,-5.20719 2.75552,-4.55571 -4.6381,-0.35863 2.34623,-2.87733 4.26351,-5.38284 3.72639,-1.54724 6.47751,-5.81081 10.0085,-2.91596 4.64483,-0.037 6.71102,-4.62376 11.16563,-5.20119 -1.74584,-4.03064 5.16643,-5.24883 6.54882,-7.81561 -1.88085,-1.63237 -2.31935,-3.36788 0.1196,-5.4922 3.10742,-0.69994 14.10752,-0.42206 12.56632,-2.42764 -0.57264,-2.42748 5.07809,-4.52312 4.61951,-6.69824 -3.31644,-1.34938 -0.91322,-4.78324 -4.68724,-4.26093 -3.70722,1.16066 -7.82424,3.18249 -10.20389,-0.51696 3.07843,-2.33547 5.49267,-4.39098 8.38345,-5.37036 0.90662,-2.0288 8.05129,-1.12673 11.11457,-1.77135 2.46656,1.29691 12.04054,-1.21831 7.45585,-3.24596 -2.83278,-2.02657 -2.82085,-5.94136 3.03122,-5.95149 2.9853,-1.58378 7.63568,-0.37104 8.16839,1.079 -2.94194,3.7416 3.9691,2.9245 5.13302,1.72394 3.62378,-1.1589 5.75888,-5.20493 10.30301,-6.05594 -0.95573,-2.64775 6.6656,-5.27578 2.89139,-7.19061 1.76965,-0.97239 5.67804,-3.52822 8.14041,-3.34147 -1.52239,0.72005 0.01,0.52877 -0.19858,1.08467 z"
       id="path3425"
       inkscape:connector-curvature="0" />
    <path
       style="fill:#ffffff;stroke:#007d00;stroke-width:0.5pt"
       d="m 496.46835,118.35722 c 0.64799,0.54038 -2.47485,0.42213 -0.17862,0.0433 0.11041,0.0443 -0.0706,-0.24296 0.18095,-0.0397 m -111.74777,2.16844 c -0.22371,0.43177 -0.031,-0.0286 -6e-4,3.5e-4 m 95.92685,-9.73052 c 0.18367,0.1482 -0.41446,0.17052 4e-4,2e-4 m 4.20855,-0.78313 c 0.0505,0.22801 -0.46484,0.11403 1.7e-4,1.6e-4 m -0.53698,-0.15246 c 1.07931,0.0238 -0.32284,0.3508 0,-3.6e-4 m -98.06556,9.73124 c 0.0839,0.25383 -0.27413,0.14112 -2e-4,-3e-4 m 93.65788,-12.28787 c 1.07914,0.27182 -2.29389,1.27539 0.003,8.6e-4 m -93.12619,9.30113 c 0.4463,0.44832 0.34039,-0.1962 1.5e-4,-0.006 m 0.68591,-2.00548 c -0.21981,0.60143 0.17535,3.11057 -0.2926,0.60208 0.10537,-0.18841 0.12815,-0.48046 0.2933,-0.6034 M 472.54,104.34351 c 0.6309,0.64881 0.65809,0.82975 -0.0244,0.39876 0.0129,-0.18746 -0.10226,-0.18822 0.025,-0.39803 m -0.23679,0.0188 c -0.29193,0.0448 -0.1939,0.029 -2.8e-4,4e-4 m -18.62799,0.15146 c 0.23506,0.0872 -0.28886,0.13654 9.8e-4,-0.001 m 0.75384,-0.48714 c 0.72768,0.21351 -1.46999,0.43397 -0.2447,0.0502 l 0.24899,-0.0521 m 19.33399,-4.00727 c -0.50027,0.30464 -0.43935,0.26632 -5.9e-4,-0.002 m 8.66576,-3.885444 c 0.22267,0.380106 -1.93584,1.164174 -0.34709,0.12566 -0.0155,-0.171954 0.39914,0.08055 0.34901,-0.12587 m -27.58358,4.889294 c 0.47757,0.001 -0.25122,0.14292 -3e-4,-2e-4 m -8.11588,0.14012 c 0.72984,0.59595 -1.56122,0.62527 -0.002,-0.003 m 16.84376,-5.279953 c 0.0372,0.558217 -2.16876,1.733698 -0.60863,0.52065 -0.13085,-0.207832 0.39986,-0.37976 0.60499,-0.52088 m -38.58339,6.254703 c 0.49358,0.76665 -0.26946,1.2358 -0.0386,-0.001 l 0.0389,9.8e-4 m 0.0228,-0.45701 c 0.30908,0.80996 -0.58826,0.16724 2.7e-4,1.3e-4 m 2.05612,-0.69501 c 0.0823,0.62702 -0.55757,0.27011 4.2e-4,-6.9e-4 m 24.09926,-4.963013 c 0.35156,0.276542 -1.14807,0.582326 -3.5e-4,2.8e-4 m -18.55367,2.779253 c 0.14672,0.96976 -1.40664,0.338408 -0.12931,0.0098 l 0.1247,-0.0092 m 15.10151,-3.299847 c 0.62043,0.08648 -0.31793,0.358245 -0.001,1.9e-4 m -2.44836,-1.230821 c 0.83277,1.418503 -1.79133,0.897512 -2.7163,2.07226 -1.46866,0.287012 -0.36609,-0.51159 0.16087,-0.475902 0.68514,-0.93601 2.20579,-0.295399 2.55124,-1.595897 m 1.48973,-1.245564 c 0.17393,0.219039 -0.53787,0.293383 -1e-5,-1.1e-4 m -22.06483,1.213742 c 0.33799,1.063876 0.83979,2.708974 2.96797,2.4292 3.38748,1.24178 9.21179,-0.06649 12.14812,-0.308189 -0.71356,1.172499 1.92974,-1.320786 1.50061,0.02339 -1.08251,-0.133712 -1.67907,1.628637 -3.26842,1.763176 -0.70414,-0.47755 -2.69364,0.01744 -3.07897,0.588953 -0.44615,-0.692037 -2.32094,0.356327 -2.47625,-0.329671 -0.93424,0.684681 -2.88594,0.322865 -1.55863,-0.329509 -0.82545,-6.44e-4 -0.84179,2.024671 -1.67081,0.571585 -0.30279,0.400358 -0.0813,-0.788128 -0.98168,0.170606 0.42446,0.94951 -1.72086,0.04142 -1.3915,1.26842 2.01494,1.12465 -2.48905,-0.373796 -1.99847,1.54271 -1.18729,-1.46064 -5.02479,-1.06642 -3.63697,1.53624 -0.17901,0.83226 -1.89836,-0.72896 -0.91639,0.4283 0.36931,1.46489 -2.27002,0.89098 -0.95922,2.34371 1.08852,0.7034 -0.97421,1.14714 0.59191,1.58609 0.62501,0.8734 3.98763,0.2477 1.46573,-0.0375 -1.85349,-0.95784 0.56548,-2.38962 1.80499,-2.39737 -0.65513,-1.1968 0.86622,-1.35011 1.8305,-1.45111 0.29509,-0.73407 1.05441,-1.38046 0.26979,-1.82921 0.90511,-0.584 0.33883,-0.55214 1.39462,-0.34353 -0.264,0.33847 0.26929,1.74318 0.79828,0.36683 0.96941,-0.73452 3.31898,-1.34306 2.25943,-2.419851 -0.0668,-0.178769 3.17955,-0.632406 1.50408,0.153236 -0.75333,0.329288 -0.47583,1.513475 -0.85518,1.891475 0.12752,-0.15027 1.48152,-3.089194 1.29488,-0.87721 0.11744,1.32222 1.17639,0.13484 1.25169,0.17782 0.64855,1.64794 1.61434,-2.81933 1.41313,-0.1299 1.39946,0.11423 -0.22435,2.54043 1.44794,1.33208 2.72459,-0.5591 2.07495,-4.07357 5.15124,-4.529559 0.95695,-0.273362 3.65946,-2.80851 3.1988,-0.897879 -1.37969,1.422138 0.18096,2.543716 1.61072,1.844308 0.32675,1.030189 -1.27926,3.08243 0.35883,3.30384 -1.50104,1.98692 1.30284,0.89542 2.05435,0.6029 -0.0804,0.0752 -2.5168,1.76413 -0.65779,0.7025 0.83753,-0.93636 1.74574,-0.28525 1.83259,0.10517 3.3346,-1.88589 2.27415,1.30316 4.12613,1.3974 -0.41849,0.22385 -2.01198,1.52051 -0.29814,0.5426 0.64187,-0.4044 2.43994,-0.70772 2.52925,-0.7709 -0.11273,-0.84201 1.86416,0.34039 0.47895,0.58615 -0.44936,-0.45105 -2.64193,1.68454 -0.56006,0.6614 0.44823,-0.75703 0.44624,0.30904 1.36569,0.66619 0.22462,1.00732 1.08137,2.39025 2.90802,1.6258 -1.37869,-0.82128 -0.79638,-2.00503 1.39013,-2.02966 3.67799,0.0996 5.81474,-2.10393 8.69764,-3.17293 1.49297,0.12248 -2.19464,1.33695 0.0296,1.27649 0.73249,0.39731 1.85158,-0.12875 1.85775,0.3577 0.46882,0.13471 -0.18421,0.71842 0.4998,0.4837 0.20496,0.70515 3.08157,-0.13326 1.16897,1.0893 0.007,0.78106 -1.95901,1.9376 -1.1341,1.64438 0.50231,0.75639 -3.27913,1.86676 -1.60332,1.6571 0.44197,1.15721 3.63217,0.38766 4.41107,1.5593 -0.4714,0.93624 1.99788,0.003 2.11493,0.88575 2.06933,0.84162 -2.42531,1.04321 -2.73071,2.0354 -0.58595,0.2555 -2.24543,0.70668 -0.82847,0.4836 2.07559,-0.22898 5.3024,-0.60597 5.25475,-2.14987 0.78738,-1.65186 -2.38906,-0.92028 -1.1562,-2.36444 1.21674,-0.88664 4.217,-1.36552 3.65397,-0.16403 0.34987,0.26637 -1.75306,0.7883 -0.93048,1.05742 -1.05009,1.48848 1.11695,-0.14307 0.58828,-0.40196 0.89687,-0.32984 3.38172,-0.67184 2.87337,-0.47683 0.50341,-0.2248 -1.02631,0.82437 0.40036,0.56261 0.86194,0.14542 0.61971,-0.0977 0.85971,-0.72014 1.53947,-1.61521 0.79974,-3.43082 -1.35338,-2.02241 0.72322,-1.52997 -1.41323,-1.54015 -1.18041,-2.12876 -0.0668,0.42113 -3.84785,0.37608 -3.25489,0.8506 -1.16518,1.06086 0.5452,0.26837 -0.0541,1.15539 -0.9596,1.01139 -2.81281,1.71797 -3.92603,1.8581 0.53636,-1.40843 2.49797,-1.59904 1.0584,-1.85471 -1.18457,-0.26942 -3.47892,2.21256 -5.30945,1.865 -0.006,-0.74623 1.40652,-0.98787 1.66367,-1.8575 1.08623,-1.40107 0.7152,-0.92059 1.4805,-1.97849 -0.18299,-1.00026 -1.99403,-0.24933 -1.7284,-1.36046 -1.47496,0.25569 -0.59277,-2.40727 1.98031,-2.37314 1.12509,-0.93972 0.52789,0.55684 1.07249,1.47068 1.42157,2.35842 5.91008,1.8011 9.35869,2.23334 2.75922,1.4561 6.30067,2.00247 9.25875,3.433 1.28248,0.15047 2.44241,0.3403 -0.81208,1.18731 3.86054,2.32453 -1.39524,1.95291 -3.82801,2.50609 -2.99413,0.42134 -5.98301,0.4792 -8.35331,1.95239 -2.89417,0.39815 -6.22965,1.04232 -8.20336,0.21978 1.19172,-0.49737 -1.91015,-0.0553 -0.35966,0.27036 -0.49689,0.40424 1.42549,-0.0838 2.27713,0.3595 1.22988,1.21319 3.36144,0.93906 5.0281,1.92545 3.70748,0.417 6.8804,1.29113 10.73188,0.60235 1.71206,0.35604 5.04257,-2.62054 6.05055,-0.80955 1.51036,0.16635 0.31984,0.0414 -0.45624,0.67223 -0.47677,0.78597 -3.61761,0.88997 -2.74931,1.51188 1.45873,0.23358 4.78274,-0.91787 3.0384,0.97665 -0.0742,0.10708 2.82941,2.41641 2.49402,2.10386 -0.78905,1.89405 -1.91274,2.74214 -0.42766,3.45036 2.1082,1.06138 3.33727,2.33986 3.95792,4.78888 1.06144,1.65184 3.60478,3.17265 -0.012,2.838 -1.88108,0.40934 -5.9002,0.12245 -7.11667,1.17652 -2.16625,-0.55963 -5.74668,-1.19713 -6.45576,-2.32196 2.88473,0.52155 7.41526,-3.64332 2.80276,-3.21353 -3.70596,-1.57104 -6.13495,-0.2127 -9.69878,-2.13844 -3.43231,-0.18892 -1.88727,-0.68236 -4.38535,-1.82137 5.9e-4,-0.78601 -3.67761,-1.84705 -4.7877,-2.23537 0.28629,1.3104 4.33577,1.7203 0.33207,1.3771 -3.43621,-0.99161 -6.13177,-0.35368 -6.40441,0.21058 -1.84458,-0.64378 -4.35673,0.22569 -3.8051,0.5806 -0.0728,0.98516 -0.87868,0.29173 -1.82486,0.87697 -2.90406,-0.89225 -2.0524,0.67139 -5.03837,0.24276 -4.45087,-1.89468 -7.61472,1.43069 -11.00989,0.27858 -3.89242,0.64537 -10.08046,3.59405 -11.27442,3.41172 2.80267,-1.40855 -2.2287,0.38199 -3.37655,1.00691 -1.52417,-0.6174 -6.86468,3.00806 -4.35409,0.5053 -3.61716,1.77655 -2.45805,-0.34605 -5.6667,1.41722 -3.11227,0.72234 -6.02562,2.23025 -6.96814,0.90555 -4.34755,0.46367 -5.6377,0.12441 -9.202,1.45507 -1.31522,-0.81687 -3.0502,3.8428 -6.2035,3.27791 -2.96832,1.69559 -1.11449,1.24707 -4.11229,2.27294 -1.59187,-0.76604 -7.44791,0.78046 -5.71549,2.45036 -0.98275,2.99003 -4.76114,-0.48492 -5.35198,2.07528 -1.79143,-0.42782 -6.59794,-0.1748 -5.03873,-2.10312 -3.19703,-0.038 -5.11417,-4.49872 -7.29789,-5.21897 -2.45511,-1.14064 -2.99259,2.3519 -6.34913,0.21026 -0.13554,-2.35394 -7.33847,0.44695 -4.50544,-2.30777 -0.7253,-4.49982 3.24375,-2.10712 5.14443,-4.00237 2.76586,0.68407 -0.74804,-4.02919 2.34742,-1.78534 3.23918,-0.0654 1.66497,-5.04051 -1.65054,-5.63305 -3.14198,-2.02168 -5.44929,-4.53577 -6.53137,-7.74038 -3.68285,-3.44224 1.38937,-2.22719 1.99129,-2.42561 1.17733,-1.39562 2.36314,2.69685 4.1978,2.12945 0.39474,0.51331 -5.35037,-4.57483 -2.59157,-3.74325 1.78313,-0.006 2.83527,-1.26389 6.00208,-0.3882 2.65063,1.01842 4.60213,1.04567 5.98512,3.59222 0.93293,0.53813 2.85213,0.49769 1.60654,1.18965 -0.84291,2.36118 3.25631,3.95881 3.75423,2.05852 0.92713,-0.33813 1.53421,2.15519 3.13407,1.6039 0.49428,0.48678 1.00919,1.35663 1.96361,1.58112 0.15515,0.69123 1.03166,0.41228 0.29778,-0.0553 1.58952,-0.11522 1.60033,-1.1489 1.0422,-2.46364 0.006,0.38661 -0.59336,-0.31247 -1.05795,0.38049 -0.7256,-0.69139 -0.39094,-2.98895 -1.1836,-1.59832 0.75119,1.95637 -0.70987,0.56057 -1.59385,0.15653 0.005,0.47946 1.72057,0.92187 -0.12805,0.2808 -2.00739,-2.56802 1.17025,-2.10717 2.60638,-2.23583 2.07379,0.10953 1.75471,1.72048 1.114,1.67475 0.18551,0.80458 -0.50566,1.35507 0.52843,1.19389 0.59824,0.4195 -0.33691,-1.67482 0.8733,-1.78308 1.70177,0.31753 -1.09395,-1.43239 0.57082,-0.43795 1.97388,1.2886 1.84705,-0.88564 1.85607,-1.6345 1.525,0.68646 1.16645,-2.34929 0.009,-1.96112 -0.47915,0.54647 -1.33115,1.42279 -1.81367,2.00337 -0.34795,1.32832 -0.37934,-1.71684 -0.8623,-1.1271 1.22465,-1.5025 4.10552,-1.10375 5.00358,-3.1883 2.72332,-0.56326 6.65463,2.51511 9.27834,0.8438 2.11584,-0.62028 4.30633,-0.89598 6.75995,-0.98183 0.84891,0.27689 0.16283,2.38349 0.90911,1.48488 0.20589,0.75795 0.21972,-0.56237 0.65164,0.0891 0.0902,-0.37256 1.00885,-0.54114 0.40997,-1.11639 -0.65023,-0.11324 -1.80866,0.29864 -1.32614,-0.29374 2.49495,-0.59786 3.11572,-3.84611 5.93156,-4.26854 3.35043,-0.88311 4.38338,-3.97303 5.80392,-6.43751 2.30856,-0.987838 1.90185,-4.820587 3.75859,-6.365138 m 26.12579,-2.821001 c 0.33696,0.387545 1.62697,0.117935 1.38957,0.39356 -0.27185,1.116853 -0.2671,0.556279 -0.24294,0.987381 -1.16977,0.469011 -0.74013,0.590195 -0.43093,-0.120841 -1.30189,0.725561 -2.20373,1.859519 -3.57945,2.099053 0.73052,-1.322502 1.26929,-2.902109 2.86539,-3.358776 m 4.81498,-3.497188 c 0.4154,0.199432 -0.36936,0.275207 -2e-4,-6e-5 m -6.74571,0.530338 c 0.10992,1.070178 -0.90916,0.58497 8e-4,-3.28e-4 m 0.87188,-3.663708 c 0.84848,0.281581 0.54258,2.936598 0.28462,1.063727 -0.14234,2.023357 -0.38276,-0.421289 -0.37439,-0.429235 -1.1443,1.136849 -1.17957,1.409305 -1.1375,3.245554 -0.17927,1.323111 -1.60664,1.800081 -1.52442,2.359754 -0.74999,1.303971 -0.31785,2.723037 -1.23469,3.227938 0.13383,-2.814649 2.56748,-5.810566 2.5728,-8.563572 0.41688,-0.413947 0.69628,-0.821826 1.42314,-0.90227 m 12.88316,-7.227705 c 1.0962,1.238543 -1.94175,2.098451 -2.70641,3.340513 -1.2066,2.991966 1.61394,4.300393 3.4119,3.110832 3.03147,-0.805686 8.87166,-4.179955 9.56379,-1.738913 0.55576,0.892521 -1.18363,2.729319 -2.06173,2.9807 -1.45796,0.743668 -3.20208,2.284284 -4.27644,3.15589 -1.08691,2.907411 1.29915,3.859653 4.20352,2.661276 1.61564,0.430545 1.73711,2.543394 4.24581,2.008836 -2.31664,0.357392 -3.55749,3.095131 -3.19828,4.104806 -0.67883,0.587431 -1.53399,-0.161575 -1.60006,-0.346321 1.28478,0.72319 1.18966,-1.317102 0.18188,-0.216962 -2.75176,0.954286 -2.04211,-0.597501 -0.0107,-1.032657 0.39857,-0.347413 2.17412,-1.265113 -0.14174,-0.79831 -2.1562,0.49277 -4.84361,1.839123 -1.1258,0.05097 1.62347,-0.544593 2.10508,-1.827461 -0.004,-0.81964 -1.03533,0.133146 -1.49837,1.612558 -2.31091,0.91286 -0.61391,-1.309296 -2.43292,0.609095 -3.62405,0.64688 -1.20361,-0.06626 -3.38437,1.270351 -3.4967,1.202001 0.98166,-0.01572 -0.53631,0.923889 -1.45323,1.33742 -0.67655,0.394112 -1.77817,2.299158 -2.094,1.793128 0.49724,-0.611173 -2.11187,0.69478 -1.29955,1.00419 -0.47208,0.66799 0.82719,-0.22373 0.1017,-0.1569 0.57886,-0.24916 1.04429,-0.018 1.89384,-0.62693 1.78694,0.67165 -1.18468,2.51484 -2.22808,1.69529 -1.15974,0.20465 -1.95961,0.1565 -2.32533,-0.1917 0.9347,0.90041 1.91966,-1.48844 1.6038,-1.18642 -1.26343,0.72584 0.004,0.85905 -1.7687,1.07432 -1.55018,1.2489 -2.18175,-0.53342 -2.74735,0.503 -0.63665,0.0289 0.65464,-1.74555 -0.67859,-0.48761 -0.86152,0.40254 -2.49969,1.13949 -1.0968,-0.10385 0.70769,-0.39219 2.04976,-0.47705 0.45074,-0.5905 -0.80365,-0.11221 -1.82415,-0.33358 -0.84255,-1.691504 0.97381,-2.101097 3.73613,-1.083058 4.35295,-1.985843 1.34183,-0.852661 0.86057,-0.576086 0.19457,-0.771276 -0.20993,-0.889605 0.56787,-0.891471 -0.40207,-1.101287 0.5175,-1.317615 -3.31792,1.306658 -1.99381,-0.27284 0.4711,-1.645361 1.37638,-1.016062 1.90561,-1.460591 0.54537,-0.762446 1.30554,-0.875364 1.82224,-1.40317 1.38652,-0.700252 -0.0786,-0.72165 -0.70143,-0.703527 0.91529,-1.766217 -0.083,-1.062245 -1.18556,-0.766337 -1.51281,0.335912 -1.20406,0.50804 -0.94121,-1.292668 -0.089,-0.901742 -1.4405,-0.619749 0.39341,-0.893154 1.70121,-0.839894 4.28163,-1.348956 4.70846,-0.14483 -0.84289,1.441124 1.15538,0.781881 0.35769,0.08813 -0.40939,-1.322417 0.81059,-2.225702 2.06072,-3.104369 1.58972,-1.488711 0.65477,0.580914 0.12318,1.388788 -1.06722,0.519105 0.30183,0.291048 0.84973,-0.70369 0.34966,1.101045 1.78973,1.461953 0.978,3.138919 0.63036,0.0019 1.31089,0.499013 1.50226,0.659955 1.57716,-1.172301 2.51321,-0.468755 2.84282,-2.366498 0.9745,-1.411492 0.38924,-3.257405 -2.19734,-1.804016 -0.28914,-0.877957 -1.55403,-0.653907 -2.22578,-1.052441 0.20431,-1.812983 -0.56732,-2.471746 -1.7294,-0.725724 -0.62036,0.715762 -0.5854,1.258593 -1.74216,1.952952 -1.07842,0.549892 -3.43527,2.364664 -1.99427,0.0094 0.53965,-1.463377 3.15597,-4.310324 1.33007,-4.298115 -1.48963,0.557409 -2.27428,2.057278 -1.85,3.230598 -0.90673,0.915238 -1.98268,2.425517 -3.16758,2.877156 0.55811,-1.719685 3.73704,-2.599024 2.87111,-4.809156 0.47595,-2.784604 4.69878,-3.854712 7.61543,-4.782964 0.56335,-0.02728 1.3587,-0.417163 1.65637,-0.498042 z"
       id="path3427"
       inkscape:connector-curvature="0" />
    <path
       style="fill:#ffffff;stroke:#007d00;stroke-width:0.5pt"
       d="m 128.44335,105.65126 c -0.15358,0.5263 -0.0824,0.30028 -8e-4,2.5e-4 m -6.37822,-1.03836 c 1.22082,0.24646 4.83967,0.83254 1.27104,0.99506 -0.92737,-0.1 -4.41195,0.43789 -3.17667,0.74654 0.73892,0.37559 2.4482,0.83006 1.13482,0.89653 0.0912,-0.22437 -2.2485,-0.74343 -1.5484,0.0571 -1.60788,-0.42808 -4.38286,-0.6249 -4.47232,-1.74674 -2.56757,5e-5 -0.16933,-1.06389 1.15591,-0.24043 1.97248,-0.11253 3.7301,-0.53499 5.63603,-0.70821 m 3.7422,-1.30393 c 1.90634,-0.31021 1.23588,1.00624 -0.16212,0.25125 0.0356,-0.0956 0.13896,-0.13907 0.16337,-0.25141 m 4.74172,-0.18436 c 0.73866,0.21647 -0.005,0.62573 -0.28259,1.2431 -2.66258,-0.26607 -2.29161,-0.83376 0.27944,-1.24274 m -4.74172,0.18436 c -1.54784,0.80413 0.57893,-1.08971 0.94157,-0.33838 -0.46649,-0.003 -0.74689,0.0692 -0.94109,0.33777 m 14.18876,-1.24698 c 5.18341,0.4081 -1.29028,0.10924 -2.48201,0.3647 -2.76536,-0.0849 -7.50004,0.47366 -9.73434,0.15413 3.11095,-0.68389 8.29144,-0.40128 12.21427,-0.51318 m 14.6048,-1.0624 c 2.28479,-0.066 0.98194,0.71894 -0.55235,0.55649 -2.21728,0.36897 -5.31057,0.1067 -7.19241,0.0127 -0.52622,-0.52977 -1.1045,0.74344 -2.1289,-0.1559 0.92426,-1.17254 5.08016,-0.28321 7.14451,-0.35164 1.08239,0.24703 1.60969,-0.0202 2.74395,-0.072 m 47.21303,-0.0742 c 2.07154,0.31558 -3.00025,1.41138 -1.31465,0.17141 0.49723,-0.02 0.70936,-0.28105 1.31271,-0.17205 m -42.91043,-0.28275 c 1.55088,-0.0164 2.91684,0.8918 0.40316,0.6603 -1.87995,0.003 -3.55788,-0.42782 -0.40292,-0.6618 m 9.92752,-0.839325 c 1.04538,0.04132 4.40951,0.438645 1.79759,0.568025 -2.35388,-0.0449 -5.46509,-0.3333 -6.31578,0.98021 -1.5569,0.50088 -1.7334,-1.695959 -0.10454,-1.577527 1.62547,0.07005 3.14069,0.103868 4.62302,0.03006 m 39.77645,-0.622218 c 0.60765,0.542779 -1.76078,0.156389 2.3e-4,6e-6 M 176.1835,98.841697 c 1.58687,0.633846 3.9391,-0.289753 5.27343,0.393877 -1.98467,0.951046 -5.35754,-0.212001 -6.67774,0.859816 -1.95557,-0.0929 0.57259,-1.596025 1.4027,-1.254088 m 16.87719,-0.369397 c 0.64663,0.394103 0.60606,0.829768 1.06302,1.371178 -0.69787,1.320527 -1.5342,-0.537335 -2.19054,-0.645467 0.67488,-0.07641 0.71162,-0.347791 1.13339,-0.727483 m -6.3666,-0.308359 c 1.1533,-0.02742 4.12787,0.727518 3.6806,0.73332 -1.51773,-0.07739 -3.83111,-0.420822 -5.15131,-0.223291 0.25672,0.908248 -2.40785,-0.606564 -0.26845,-0.443659 0.51889,-0.09235 1.20592,0.02181 1.73974,-0.06664 m 28.1821,-2.132377 c 0.32462,0.197113 -1.90381,0.676211 -1.19624,0.05065 0.30846,-0.03751 0.73038,0.05522 1.19606,-0.05084 M 232.4028,93.81617 c 0.18523,1.081799 1.72134,0.46249 1.3064,1.028788 0.98989,0.0393 0.71282,0.441741 1.67148,0.858678 3.09427,1.482969 8.4268,1.494304 12.52625,0.698163 2.19725,0.596381 3.70574,-0.7448 5.72848,-1.243292 0.17899,-2.253697 6.23807,-0.534525 8.1897,-0.50594 3.21015,2.204716 5.58496,5.706703 8.06506,8.025683 0.0143,6.01162 8.92941,5.80944 13.6875,6.27187 -0.56965,2.8559 -0.36804,6.70904 3.03799,7.65115 1.01799,3.76502 6.1647,7.43785 10.18984,11.67265 1.62722,-6.42988 11.57938,0.38 6.73816,3.93405 5.77775,-2.09752 8.78393,3.2372 13.25724,0.14226 2.39536,-1.31203 1.61897,-4.09562 7.18647,-3.52626 4.92259,3.51972 8.96979,5.51262 13.9469,7.60813 5.43204,1.5201 6.63698,-3.34014 10.97124,-4.32469 4.20472,1.2763 7.32877,6.9563 12.33251,4.67478 2.69079,0.0894 6.07572,3.22739 7.21157,1.04167 3.89787,-1.81276 4.33634,3.4737 8.24145,4.64903 1.87951,0.16012 0.006,2.21094 2.72909,1.84239 0.98764,2.45086 3.16825,3.33426 5.68953,1.69307 2.04709,1.50857 4.75808,0.6374 2.75948,2.7022 -2.45943,-0.49122 -1.5303,3.7958 -4.41381,4.70271 -2.23348,1.7444 -4.71669,3.22611 -6.07278,1.84092 -3.39973,1.38983 -4.30745,-0.11684 -7.39142,1.43561 -1.02871,5.74411 -10.88553,1.16727 -8.85815,7.321 0.56901,1.32282 2.66448,3.18125 2.03938,2.56256 1.9256,0.89209 2.06073,5.04881 4.9306,2.83188 -1.68334,1.98363 -1.93082,3.63977 0.45651,5.5006 -5.09216,-0.40173 0.26529,5.12177 2.02569,5.21823 -0.82787,1.9967 -4.59003,1.15322 -1.32848,2.9926 -2.95083,1.62564 3.96088,3.36345 -0.48971,4.53035 -2.23486,1.72387 2.89752,2.24102 -0.68187,3.91061 -2.17212,1.76124 -2.26224,1.36894 -2.23387,3.71823 -3.17484,1.1168 -10.49001,0.21917 -11.34736,1.99548 -1.02342,1.25679 -5.49878,-0.3387 -2.29975,1.92364 1.2675,1.14692 2.6058,0.68446 0.8028,1.96087 3.18876,1.23069 -1.06651,3.32235 -0.98178,3.84282 -1.83455,3.47305 3.68912,3.85846 3.00549,7.17148 1.60454,1.67741 -3.32176,2.88009 -0.52528,4.31221 -0.6902,1.13239 -2.58609,-0.88056 -4.05554,1.21926 -1.95006,-0.67001 -7.01429,-3.02531 -6.61274,-0.0334 -1.20439,1.68713 -4.54088,4.32123 -7.2228,3.17681 -0.4899,1.82334 -1.13985,1.86507 -2.8045,1.87487 -1.74518,0.0407 -1.7895,-0.72367 -3.52208,-0.008 -1.13555,0.23313 -4.2986,2.96398 -4.85926,-0.58398 -3.83993,-0.28916 -1.3144,3.75718 -4.11942,-0.0163 -1.05645,1.3266 -2.98118,1.81269 -5.74145,3.09622 1.06513,3.5076 3.65517,0.0838 2.97717,1.82737 -0.22998,2.4906 -5.37839,0.83167 -7.54623,1.2226 -4.06994,-0.54103 -2.77264,-4.18369 -1.93859,-2.83047 1.92904,-2.60724 5.0871,-1.80829 3.86619,-5.26975 -0.56211,-1.53242 -1.6972,-4.47033 -0.14454,-4.92225 3.44374,-0.4675 2.27498,-2.18509 0.61475,-3.99441 -1.32737,-1.29101 -4.39452,0.0228 -6.30265,-0.96615 1.12553,-2.98975 -6.43533,2.19982 -5.23022,-1.55976 1.5954,-1.20905 0.4709,-2.94705 0.40189,-4.48219 -2.3561,-2.13057 4.22841,-2.67203 1.17246,-5.29715 2.21887,-2.0282 -1.62134,-2.56294 -4.85624,-3.34808 -0.14475,-0.92228 -0.7683,-4.46063 -4.34571,-4.62985 -1.64266,-1.68136 0.74496,-1.54196 -2.09846,-2.98876 -1.40762,0.47997 -6.82395,-0.40895 -3.48698,-1.70241 -1.03621,-0.70215 -2.10426,-2.94413 -2.10529,-4.46886 -4.48435,-1.49932 -0.19863,-3.13363 -5.61315,-3.7297 -2.76117,-2.19745 -7.35597,0.0662 -6.86011,-3.18907 -4.74977,-2.89599 -0.5907,-1.25606 1.02609,-0.47476 1.19756,-0.052 1.28017,-2.29923 1.20465,-2.27275 -2.50254,-1.52177 -11.12027,-4.07671 -7.07197,-4.29944 -1.08609,-3.25779 3.63136,-0.66498 5.89945,-1.00834 1.03574,-1.47503 0.91518,-2.57624 -1.55154,-3.6852 5.11892,-0.27344 -4.40092,-3.34692 -4.32855,-2.70837 -2.7359,-0.33552 -4.59298,0.69659 -4.27285,0.477 -4.2712,0.73515 -10.23514,-1.99737 -17.20889,-2.55311 -4.28052,-1.06283 -1.51756,-2.71156 -4.83022,-4.44054 -0.73524,-3.12945 -11.40601,-2.19894 -16.93198,-4.27027 -3.88362,0.18452 -5.23179,2.24344 -9.23668,1.52834 -4.55415,-1.30384 -6.38567,-0.60137 -3.9546,1.55146 4.22693,0.97404 10.12913,2.66372 11.0931,6.29459 0.017,2.827 1.47771,4.05865 -0.67721,5.48576 2.88882,2.28477 9.97191,2.5205 3.28168,4.06825 -6.04039,-0.84817 -4.76161,3.90262 -10.98565,-0.69219 -2.41401,-0.90742 -6.36845,-1.88965 -6.97394,2.08957 -2.62374,-0.9581 -6.33675,0.15328 -8.74645,-0.48472 -1.93798,4.91526 -10.1928,0.60047 -7.58964,-1.3193 4.29788,-0.75449 7.69236,-4.17942 5.61289,-5.77359 -3.11566,0.86375 -8.1471,-2.28947 -5.19314,-3.52425 1.72675,-1.45719 -1.54804,-4.89158 3.15629,-3.89005 -3.29748,-1.80722 -3.12686,-4.15025 -8.20752,-3.98195 -7.04668,0.93117 -12.51178,-7.34083 -18.93066,-3.5762 2.87009,0.37111 -0.51826,3.19816 -3.16955,3.05332 -8.7895,1.39526 -15.97388,6.87905 -25.87812,6.47576 -2.28469,2.0873 -10.00636,1.98714 -5.75978,-1.07638 2.71236,-1.45455 3.48072,-3.21539 0.27039,-3.63056 -2.5216,-3.34457 -6.31899,2.40573 -10.51263,0.65091 -2.68303,-0.28875 -7.66011,2.14676 -9.91003,0.10091 -0.6124,-2.71838 0.30138,-2.03767 3.51186,-3.04356 2.03766,0.40868 -3.83335,-1.48677 -0.90096,-2.6093 6.47672,-2.87668 14.89472,-1.467 21.78256,-3.26703 2.19852,-4.38623 2.40315,-8.97388 8.01383,-10.12463 3.03535,-1.71879 7.28241,-3.43185 5.82575,-7.12233 1.46663,-2.17566 -2.881,-1.81738 0.0671,-3.36624 3.35872,-0.63864 1.05476,-0.66045 1.46454,-3.1958 -1.17538,0.0888 -5.3999,-0.16924 -2.88956,-0.94204 0.96146,-0.82023 0.0473,-1.52829 1.00157,-2.3259 0.71998,-0.93159 -3.49705,-0.67506 -3.71072,-0.70335 -3.25993,-0.67462 -9.72729,1.33063 -10.62018,-1.27268 1.4957,-0.70441 0.46112,-2.66972 1.61409,-3.98384 -0.003,-1.06686 2.21675,-1.14375 0.44125,-2.09919 -0.0103,-1.08627 2.0725,0.54134 2.68819,-0.0641 0.80677,0.81118 1.78508,-0.0677 3.10186,-0.0118 0.72697,-0.62981 -0.83448,-0.16008 -1.44775,-0.98598 -1.20127,-0.22581 -1.65935,-1.28245 -0.2023,-1.55491 1.85935,-0.2443 2.3706,-1.34132 3.68175,-1.5287 3.4842,-1.96368 8.95637,-2.18304 14.52767,-1.69443 2.73261,0.007 5.8478,1.14063 7.68817,0.27514 3.52774,-0.52312 7.56602,-0.7087 11.34077,-1.05526 3.9344,-0.15065 9.94254,-1.09269 13.40947,0.0372 -1.23447,0.56447 0.0347,3.61991 2.31835,2.50322 0.40783,0.005 1.70444,0.91389 1.99305,0.1381 0.81827,-0.0156 -0.69612,0.34057 -0.59778,0.63091 0.77543,0.70109 2.30803,-0.12799 0.82708,0.55645 -0.2616,1.35595 3.10274,1.18073 1.96417,1.19174 -1.35333,0.70562 1.39099,0.9009 1.21449,1.16817 -1.33997,-0.37302 0.60392,0.68165 -0.78132,0.92644 1.75815,-0.73775 -0.54312,1.28242 -2.01426,0.89616 -1.74141,0.42287 -5.22038,-0.21304 -3.22597,1.5689 1.95285,1.4245 6.0991,0.11005 7.38715,2.32197 2.59667,0.57574 5.39044,-0.59255 6.3922,-1.93487 1.09713,-0.72606 0.90446,-2.54318 0.69132,-2.82848 -1.43783,-0.19965 -4.14814,0.80198 -4.75191,0.0229 -0.016,-1.77496 1.51647,-2.89791 2.65305,-3.38851 4.71793,-1.76179 6.17389,2.12228 10.74927,1.67608 1.91821,0.38359 4.00332,-0.28451 5.24776,0.4617 2.26213,0.23936 0.32662,0.90494 -0.95415,1.05776 -1.56756,0.59898 2.88517,0.16894 3.05034,-0.46098 0.90009,-1.10205 -2.9618,-1.6436 -2.44589,-2.57448 -2.82135,-1.68345 -3.38651,-4.44629 -0.24568,-6.1136 0.10292,-0.96862 1.40995,-1.817347 1.32868,-2.898331 0.76841,-0.889697 2.64134,-2.178536 3.95933,-3.003929 1.57588,0.0831 5.20449,-1.704573 2.49358,1.93981 -3.67917,8.11826 -7.35835,16.23652 -11.03752,24.35478 5.66279,-0.16326 8.131,2.21073 11.2003,4.96527 1.98481,1.47881 4.2631,6.4476 7.75355,6.23775 2.2859,-2.56985 6.9461,3.6235 10.07664,3.26017 0.36536,-3.56401 7.11873,4.56471 9.31506,0.36459 -1.41631,-1.9252 -0.85206,-4.83892 -2.30283,-5.26632 -1.41026,-1.40021 0.583,-3.77073 -5.05627,-3.87655 -4.27081,-1.43809 -8.30841,-4.02394 -12.40487,-4.41856 -3.3787,-1.93796 -8.19927,-0.29048 -10.29324,-2.37448 -5.29344,2.52226 -0.54965,-1.72441 -6.27338,-0.37781 -1.36806,-0.4801 -6.18463,-0.51632 -2.01553,1.48743 m 1.66656,-28.81752 c 2.1668,0.279938 -0.12874,1.313188 -0.40175,0.715679 -0.32507,-0.260147 -0.17943,-0.595258 0.40185,-0.715544 m -3.75612,-0.958796 c -1.01902,0.293408 -0.009,0.07024 4e-5,-3e-6 m 0.51446,-0.618803 c 0.40759,0.245705 -1.34746,0.08108 0,0 z"
       id="path3429"
       inkscape:connector-curvature="0" />
    <path
       style="fill:#ffffff;stroke:#007d00;stroke-width:0.5pt"
       d="m 239.59018,151.8906 c 2.69201,0.77928 3.55482,1.5442 4.35329,3.08912 1.09663,2.45727 2.20176,3.48308 7.32047,3.62923 5.26436,1.55667 10.24236,2.67312 13.31396,2.31537 1.2141,-0.049 1.38738,-0.89274 4.31668,-0.4619 0.91215,-1.02393 9.71866,2.62842 4.67104,2.68726 2.54931,1.16609 2.53448,2.17387 1.55154,3.6852 -2.747,0.0149 -6.89349,-2.0287 -6.19206,1.27842 -3.45357,0.0793 7.08545,3.05838 8.06975,4.71544 -3.97657,-1.73545 1.80874,3.70875 -3.23196,1.22738 -1.52779,-1.19582 -2.61165,-1.25686 0.0157,1.36987 1.35396,2.38877 5.32726,1.27053 8.7144,2.79733 2.15474,1.69293 2.26937,2.41449 4.07532,4.37742 0.0221,1.76511 0.33663,4.11348 1.39031,3.78449 -1.59597,2.89833 5.57161,0.17818 6.09752,3.13073 -2.46596,0.57372 2.94399,1.80439 4.1999,3.92981 -2.01958,2.88712 4.36493,2.36365 5.98961,4.17637 -2.11888,0.76336 1.52133,3.27188 -1.17689,4.2955 -2.78793,1.04332 -0.18917,2.89191 -0.32845,4.80282 0.44546,0.83683 -2.95783,4.18546 1.01499,3.33547 5.13723,-0.39324 -7.24772,2.05616 -3.2747,3.64701 -0.41387,1.80771 -3.62581,5.28105 -5.21916,6.71768 -3.69428,1.58503 -5.83863,4.59517 -9.1227,5.85268 -1.29062,1.4338 -8.55321,1.63285 -4.61942,-2.10758 -2.27266,-1.15306 -5.63643,-2.09391 -8.60639,-1.04623 -6.82332,0.42727 -5.682,5.65698 -1.72798,6.14938 0.89552,3.76176 -6.5602,4.30658 -8.75919,3.06574 -3.59136,1.45372 -10.51758,-0.47275 -11.07237,2.3184 -3.53494,0.43323 -5.38792,2.9833 -8.53513,5.34249 2.92063,3.20472 5.8544,1.26846 9.49676,0.77331 4.20241,-1.81554 2.45796,1.95261 5.26327,3.68999 1.31727,1.70807 -4.57626,4.40819 -4.35398,6.24715 2.4286,2.9073 -8.8341,1.76905 -11.69985,3.131 -4.16229,0.52913 -2.32771,3.95364 -1.41282,5.08296 0.40054,1.86111 -6.47534,4.05893 -6.47488,6.29549 0.86266,3.40357 -5.35604,2.93252 -7.08987,5.64891 -2.04042,3.19596 -6.75178,-1.35871 -8.9541,1.18495 -3.26425,2.45756 -8.44672,5.53552 -10.7658,7.72009 0.71548,0.72345 3.64384,1.17281 1.21767,3.656 -2.11506,3.65062 -5.12351,0.70319 -8.78964,2.70918 0.84814,-3.73452 -7.32661,-3.11029 -3.73742,-6.15191 1.99412,-5.17222 -4.66141,-0.73055 -5.32713,-4.62547 -7.18641,1.26273 0.87953,-6.70681 -6.38328,-5.25429 -4.42924,2.48842 -1.43957,3.01521 -2.10403,6.68946 1.36046,2.53526 -1.74482,0.42831 -2.77774,2.72707 -5.34731,0.83463 0.37882,3.22983 -3.10474,3.58606 -2.27834,1.54252 -4.29634,3.48574 -7.44372,3.3397 -1.31345,1.46874 -6.18296,2.24573 -8.8459,2.22964 -4.85169,-1.29402 -0.25171,3.01066 -3.4941,4.27666 -2.71073,0.91844 -8.46415,3.35974 -9.52333,-0.32243 -1.27572,2.52646 -3.7542,3.49362 -6.21722,3.23748 -2.84609,0.1968 -6.37899,0.91326 -10.15927,2.24311 -3.05767,-1.16689 -1.77933,2.98561 -4.78164,2.18966 2.39579,1.0324 2.24601,3.02937 -0.46098,3.82256 -3.09574,0.51396 -6.41912,-4.69103 -9.97507,-1.43595 4.42945,-0.12434 -1.39371,2.64619 2.57147,2.7142 0.41633,0.66766 3.39286,4.66025 1.19797,3.89415 -3.76719,0.66936 -6.6182,2.15451 -9.27885,-0.77593 -3.26412,3.66773 -3.69825,-1.85752 -7.16787,-1.21483 -4.556351,1.08804 -5.414721,0.52471 -7.861306,1.57712 -4.005669,1.43771 -1.569068,-2.10861 -5.742419,-2.09451 -1.175214,-2.00516 -4.308285,-1.19272 -1.424062,1.1458 3.485091,3.23583 -1.319615,-0.36109 -3.109066,-1.73914 -5.077781,-1.08456 3.87165,-5.96876 -2.783808,-6.96412 -2.676728,-5.08035 -8.504558,-0.76947 -11.474741,-5.8744 -3.284248,-4.21456 4.109937,-2.56174 5.719401,-5.41889 -2.372301,-1.79322 -8.798124,-0.73086 -8.201398,-2.64422 1.2376,-1.36137 -4.2993,-6.99516 -7.284562,-6.64285 -3.906305,-1.68788 -2.76002,-5.16561 -5.896652,-6.93647 -0.181512,-1.35242 4.485147,1.19838 2.831154,-2.15975 -0.733113,-2.65556 4.296938,0.53687 3.773033,-2.92505 -1.194432,-2.83758 -0.83201,-4.27567 -3.362991,-4.77031 -3.850797,-0.64083 -0.855072,-3.21904 -1.238243,-4.49922 -2.140001,0.21891 -4.27603,-1.08928 -5.88785,0.0497 0.974768,-2.20229 -3.565571,-5.83497 1.075859,-5.61437 2.808029,4.68368 2.013401,-3.58438 5.622865,-3.12302 2.825612,-2.58984 4.955793,-3.63035 8.637695,-4.41566 -5.700979,-0.96609 5.014429,-3.35409 -1.955958,-2.42786 -2.212915,2.71928 -6.541747,0.15637 -4.085801,-2.40273 -0.809525,-2.76318 5.015396,-4.92594 5.837868,-8.10469 3.203683,0.43176 4.697753,-3.66927 3.942176,-4.95739 -3.075501,0.0452 2.397915,-4.77047 0.08885,-6.58951 -0.11336,-3.57053 -4.446467,-5.78207 -7.235299,-7.30974 0.914414,-2.2034 4.550001,-5.79576 -0.160077,-4.80854 -4.880584,0.42441 1.513892,-5.01184 -2.406052,-4.36996 -5.085027,1.6553 0.791183,-2.0807 -0.21548,-2.59233 1.32146,-2.15917 -2.889894,-2.90479 1.384136,-3.96189 3.127552,-2.29913 5.44135,-4.10934 9.599789,-4.10131 2.981975,-1.61162 -2.72035,-1.91553 -1.718999,-2.33224 2.362919,-1.70123 4.831078,-1.63527 6.331691,-0.24548 2.054543,-0.16858 5.34875,-2.90669 6.004492,-0.48185 2.246831,-1.44683 6.684103,1.59868 5.885951,-0.78079 -1.860163,-2.4771 2.06086,-1.13343 2.626339,-1.40702 3.551528,0.94351 7.995659,-3.26136 11.835991,-3.78265 2.75999,-1.88179 4.0448,0.41285 6.19041,0.42387 1.82571,-1.18035 4.5487,-1.9104 5.13127,-4.38862 4.5865,-0.85016 -0.42749,-3.93979 -2.45705,-4.03592 -4.67793,0.77278 -5.95393,-2.19655 -1.61998,-2.72899 2.71697,-1.34774 2.10476,-4.4336 6.85074,-4.0644 4.78082,-0.79664 6.50178,-5.19455 11.35437,-6.09264 2.72812,-4.34919 8.84201,-3.03074 12.75056,-5.7516 9.90943,0.42911 17.10356,-5.10357 25.87812,-6.47576 2.79998,0.0234 6.00962,-2.52752 3.16955,-3.05332 6.67306,-3.78533 12.33222,4.93255 19.7254,3.584 4.80571,0.2723 4.16891,2.23429 7.46318,4.16599 -4.94951,-1.34021 -1.3738,2.38615 -3.20667,3.69817 -3.12947,1.6467 2.7442,4.1362 5.90522,3.7359 0.49633,2.53547 -3.22004,4.82582 -7.51008,6.23921 2.42129,3.69324 6.28,3.19343 9.13376,0.89432 2.55381,-0.50037 6.9984,0.60081 8.52257,-0.52502 2.58005,-5.35189 8.13527,0.73897 13.3014,1.06231 -1.8056,-3.42636 6.43203,-0.70678 7.71737,-2.87152 -1.77568,-0.66558 -8.81694,-2.80994 -5.42617,-4.78117 0.027,-1.52982 0.10476,-4.63293 -2.64985,-6.71114 -1.46354,-2.04407 -9.87564,-2.37337 -8.93404,-3.95049 -4.18398,-3.40211 4.9427,0.0754 7.06219,-0.85217 3.09466,-0.4997 6.24546,-2.60783 10.55564,-0.26818 3.06612,0.20493 6.36605,0.15298 9.28753,1.0396 z"
       id="path3431"
       inkscape:connector-curvature="0" />
    <path
       style="fill:#ffffff;stroke:#007d00;stroke-width:0.5pt"
       d="m 184.55093,269.69141 c 5.62476,0.95722 -0.63589,6.06408 5.6046,6.27492 1.88899,2.36295 7.58261,-0.24465 4.93796,4.09504 -2.03201,3.17268 4.89252,2.85693 4.79066,6.03571 4.12296,-2.00917 4.85169,-0.37936 4.84435,1.39009 1.23202,2.19656 1.96197,1.35663 1.44415,3.54301 -2.16574,1.842 -1.60563,2.09545 -4.5561,2.29798 -2.92924,-0.99925 -6.29766,0.81886 -7.64966,3.04638 0.18949,3.00385 4.28619,1.50257 -0.2011,3.09176 -3.90946,1.94475 4.10112,1.41361 3.42463,1.57193 1.69925,2.05542 3.35894,1.74011 4.17912,4.71217 -1.40659,1.6045 -7.87587,-0.0481 -5.99306,2.16041 3.44405,0.48461 -3.26055,-0.23587 -3.0041,0.84899 -2.39897,1.29311 -8.20101,1.91708 -5.9189,3.97221 2.83495,0.8905 1.0669,3.47815 -1.84782,1.97673 -2.13556,-1.07161 -2.03646,2.65412 -4.55865,2.18768 -3.55501,1.58304 4.65094,5.92167 7.52525,5.02951 8.44019,-0.90475 17.87887,-8.43745 25.53303,-1.84194 0.0422,2.78786 -1.70016,4.10991 2.04488,4.46392 -4.11901,4.43237 9.70187,1.90372 3.83571,4.11775 -2.50337,2.40033 -11.23985,2.71547 -5.79535,6.90061 1.59312,0.0328 3.08396,8.57591 2.33992,6.96374 0.64578,0.31095 7.36314,0.87707 0.82388,3.19802 2.72944,-0.15026 2.19945,0.99875 -1.6642,3.53889 7.41092,0.59502 -5.29692,3.32575 -4.22156,4.91124 -0.20909,0.70663 -1.72105,5.15187 -3.57409,7.23042 -2.69759,2.73176 -4.97106,7.20505 -9.06175,6.46565 -1.77012,-0.37421 -7.64343,-0.88042 -8.47176,-1.47373 -3.24429,-0.14446 -6.25246,-2.95401 -9.79371,-0.41855 -1.07601,0.64516 -4.28797,-2.0767 -6.11951,0.44488 -1.66877,-0.92868 -4.04808,0.77616 -6.59585,-0.12575 -1.21883,-1.1647 -6.01857,-0.67525 -6.77767,-2.78549 2.35572,-2.17646 -4.49081,-2.07224 -6.51818,-0.60736 -1.13282,0.84222 -4.51454,-2.1755 -3.52034,-2.72563 -1.26369,-2.34777 2.79182,-1.28461 3.30547,-3.78296 2.50132,0.50943 3.13084,-1.91538 2.63425,-2.64162 2.03734,-1.76898 1.16504,-3.10431 -0.64438,-2.71642 -3.4532,-0.80355 -3.80706,-0.77953 -6.09762,-3.02796 -4.28496,-1.2936 5.84272,-2.03593 0.85545,-3.81539 2.28047,-2.14056 0.66725,-1.20667 -1.37773,-4.16842 0.18672,-0.4368 -5.63654,1.09438 -5.81438,-1.20821 -3.58837,-0.28484 -6.7111,-0.50438 -10.42517,-2.02761 -3.7721,1.42329 -1.84177,-0.0729 -5.80078,0.76284 -0.93108,0.22956 -5.13739,0.44576 -7.79673,1.98653 -2.94598,0.40938 -7.48186,1.87804 -10.72463,3.37089 -2.3112,-1.71173 -4.41615,1.50254 -6.89312,0.91521 -1.901432,-1.66898 -5.071471,0.96725 -7.081952,-0.67548 -1.818959,0.90076 -7.20105,-0.34995 -4.486561,-1.79728 0.470539,-1.09662 4.389318,-2.88053 2.996527,-4.08701 2.082468,-0.97034 6.327984,-2.5442 4.379553,-2.84526 1.464953,-0.0795 0.222645,-2.62582 1.662006,-2.86598 -1.734266,-0.92978 -7.380293,0.12052 -10.212306,-2.48812 -3.008302,1.349 -2.70609,-0.51845 -4.392698,-0.74089 -2.948163,-0.68781 -3.628688,-2.21738 -5.236713,-4.46956 -2.919983,-1.44393 -2.698998,0.2588 -4.064489,-1.98557 -1.778392,-1.14373 -0.696896,-1.09852 -2.179419,-2.65931 -1.257432,-0.94578 -1.862108,-2.11317 -1.254086,-1.89983 1.049416,-1.20635 0.638095,-0.89654 0.890846,-2.55557 0.423583,-0.7641 1.756469,-1.4172 2.107059,-2.93461 -3.165257,-3.97495 6.433292,0.21444 5.115398,-2.72422 0.746998,-2.33594 6.796572,1.46777 9.306262,-0.048 -3.553838,-1.67676 -3.267932,-5.35705 -0.69724,-2.55479 2.244795,0.17488 3.550299,2.3465 4.941812,2.71997 3.725548,-0.27787 3.105873,-1.98723 6.910685,-1.11472 4.937996,-3.25917 4.740626,2.84483 8.600796,1.27514 1.96355,-1.11575 4.71292,2.59016 8.29308,0.31373 6.12172,0.31831 -0.1081,-1.91983 1.67497,-3.7642 -4.04045,-1.01882 -0.89698,-1.32049 -2.27825,-3.40974 -2.69085,-0.64926 5.15806,-1.48083 6.52936,1.3174 1.82023,0.91766 4.84334,-0.39309 4.1353,-2.02945 -3.27448,-2.41864 1.69046,-0.67673 1.07292,-3.88843 3.28922,1.10535 6.60293,-1.69871 9.22263,-1.91489 2.94575,1.18003 4.30121,-0.65305 7.32217,-0.58482 1.51079,-5.26873 3.18458,1.16084 8.10362,-1.29021 2.99881,-0.26576 6.30329,-3.0773 4.18874,-4.97512 2.41447,-1.48719 6.78371,-0.13325 10.17245,-1.51747 0.84039,-1.92383 4.9463,-0.49931 6.36597,-3.32441 2.61842,0.64861 5.45512,-2.14046 2.35631,-3.66704 2.40046,0.53638 5.07685,-3.07148 5.73721,-2.62195 0.57384,-0.80365 0.56994,-3.90371 -0.18781,-5.25194 -2.28733,-0.5629 3.42714,-1.38868 3.28044,-3.0784 z"
       id="path3433"
       inkscape:connector-curvature="0" />
    <path
       style="fill:#ffffff;stroke:#007d00;stroke-width:0.5pt"
       d="m 132.90413,336.93819 c 3.45986,1.48342 6.60693,1.53742 9.99667,1.8833 0.84399,1.52925 5.07977,1.53172 5.84456,1.39851 2.72,2.95103 3.0018,1.65695 1.37593,4.39762 4.93369,1.2457 -5.98562,2.35175 -0.47795,3.59722 1.05043,2.50607 3.94435,1.49789 5.35895,3.27678 3.41367,-1.65384 2.3979,1.4336 0.64427,2.29654 1.91822,-0.41525 -0.47848,3.34525 -2.76769,2.88909 -0.37054,2.35948 -4.48408,1.59509 -2.85766,3.7298 -1.06495,1.63007 5.90076,3.04589 1.69541,3.88289 -2.13119,1.33828 -3.80014,2.64556 -4.91707,2.1736 -2.44263,-0.79385 -4.50926,1.62012 -6.44371,0.43657 -1.89144,1.52355 -4.29486,-1.45511 -6.86171,0.68566 -0.8751,-3.68956 -7.13931,-4.3867 -9.7959,-4.74796 -2.16743,1.23174 -6.47078,-1.74217 -5.88891,3.31072 -5.61598,0.92392 -7.07744,-2.10517 -10.34769,-3.81149 -0.041,-4.7863 -5.976,-4.22634 -6.82189,-8.21122 4.65846,-0.56331 -2.251738,-1.82457 -2.268459,-4.99926 -2.514088,-3.20214 -10.053192,-3.64774 -9.863812,-2.14556 -0.778523,-3.19342 0.403785,-4.37806 3.981282,-3.7473 2.92809,0.42543 5.449632,0.45558 8.388879,0.0614 2.7691,1.75462 4.99321,-2.16559 8.00065,-0.62822 2.9369,-1.36625 7.30143,-2.83491 9.99913,-3.12461 2.62788,-1.62735 8.75813,-2.43746 7.79075,-2.04643 3.82027,-0.55749 1.93782,0.36433 5.44517,-0.37644 0.0473,-0.36852 0.60466,-0.43352 0.7908,-0.18122 z"
       id="path3435"
       inkscape:connector-curvature="0" />
    <path
       style="fill:#ffffff;stroke:#007d00;stroke-width:0.5pt"
       d="m 430.88458,215.1614 c 0.514,0.73887 5.11417,2.54999 5.73759,2.4519 1.80678,-0.0799 3.95018,1.01116 8.10398,2.46982 2.06071,1.53261 5.26336,0.89848 6.3719,2.26654 -1.93522,0.59336 6.12998,1.34982 3.13433,2.4006 0.3981,0.27884 -1.96105,2.44494 0.63177,1.81455 -0.35563,2.25142 5.28781,1.25113 4.26379,1.09666 2.42271,-1.14331 2.20884,-1.11891 5.84191,-0.87882 0.86643,-1.20002 5.33277,0.30618 7.39802,0.99244 3.11059,-0.0183 9.70251,-0.021 12.39577,-0.83812 3.30552,-0.62703 5.50249,-1.22089 8.6429,-1.88033 1.32164,1.72769 1.41674,-1.12055 3.36006,-1.58482 1.02256,-0.61083 1.72824,-2.60011 0.8547,-2.41751 0.89403,1.44187 5.42231,-6.85425 3.63408,-2.77026 2.87848,-1.3152 7.42796,1.26255 8.19817,0.27182 2.85819,-0.95003 5.98452,-0.27393 8.6553,-0.48776 1.14709,1.70705 5.63123,1.83169 5.08533,-0.47421 2.34815,1.05298 0.1208,1.81536 2.72534,2.86882 1.89092,1.85512 5.58546,1.83183 7.64103,3.30336 3.19194,-0.30044 7.59716,2.45749 6.37667,4.55856 0.16865,1.03765 1.54999,2.12862 0.61001,2.75301 1.85508,1.95644 5.11769,3.40315 4.09711,6.58664 -2.04431,1.23203 -1.32993,4.18059 -1.91671,5.74564 -0.82952,0.94734 0.11572,2.27313 -1.65778,3.16775 -0.6312,1.56386 -0.8558,3.61927 -2.3567,5.04635 -0.60944,1.10308 -4.39344,2.70803 -3.8233,5.1354 -0.43401,2.40169 -4.84857,1.1658 -5.72618,0.36918 -3.00226,-0.0457 -6.95814,-1.53512 -3.36582,-3.96466 2.02266,-3.10316 -6.37534,1.20792 -3.44831,-2.52478 2.7162,-1.76254 -2.41592,-3.19504 -2.46354,-3.5969 -3.58641,-0.45215 -0.57174,-3.66361 -3.21201,-0.54393 -1.97196,-0.0225 -5.06406,0.21202 -6.55122,-1.01228 -1.99689,-0.48765 -2.79269,-2.49388 -2.98319,0.52475 -0.95407,0.0999 -2.37743,3.02639 0.61067,2.72694 1.61725,0.56053 3.60001,1.50398 5.77354,2.02448 0.22709,3.06786 -4.72562,3.21912 -7.47721,2.841 -1.65846,2.16037 -5.24347,2.18052 -8.69033,3.41931 -1.56713,1.94499 -5.25429,-1.54247 -6.66561,1.40656 -4.10947,-1.10013 -0.6347,2.77256 -3.56681,2.42453 -1.47748,1.86626 -6.35172,-0.0129 -8.69065,0.62763 -1.90831,-1.28362 -4.14168,1.06516 -7.1028,0.57371 -0.62356,1.12529 -0.0377,2.39814 -1.68424,3.07488 1.17505,0.78664 -2.4171,2.27693 -3.0635,2.67173 -2.33446,-0.43544 -3.53342,-4.03752 -4.41797,-1.20488 -1.98467,-0.19152 -2.64758,3.93056 -4.25994,1.45868 -3.47527,-0.91831 -2.04495,3.26081 -4.23232,3.93271 -0.90541,1.83382 -3.73568,-1.10961 -5.305,0.66862 -2.98521,-1.4228 -3.18039,0.2518 -3.40792,2.55491 -1.88058,2.42397 -4.81971,2.38625 -7.32803,0.10229 -1.44528,-1.05886 -3.08535,-1.55151 -3.32202,0.10857 -2.29544,-3.21042 -4.7727,3.42087 -6.2565,0.35728 -2.46256,0.44839 -8.44818,-1.17629 -8.7503,2.3372 0.2089,1.48336 -2.73963,0.34858 -2.17791,2.11925 -2.40487,-0.62765 -1.06973,2.31752 -3.33551,2.75033 -0.2896,1.26037 0.2572,2.31696 -1.17542,2.24575 0.26346,2.04669 -0.45384,2.29861 -0.73707,3.2259 -3.75452,-0.71812 -0.17751,-3.51163 -3.09233,-4.2915 -2.22474,-1.31341 2.35445,-0.72088 -1.04199,-1.94257 -2.66836,-1.05688 -1.10553,-4.48101 -4.92035,-2.82339 -2.452,-2.36688 -3.42244,-1.49629 -5.69398,-3.40761 -0.12237,-0.64718 -0.49559,-3.32178 -1.67488,-3.3549 0.2969,-2.20589 -4.22131,-2.56687 -0.5824,-4.00631 0.8271,1.86149 1.72694,-2.20274 -0.2878,-2.80516 0.16137,-2.12245 -3.13489,0.84172 -1.77951,-2.60163 2.64907,0.0195 1.56575,-3.36859 3.71288,-3.43015 1.11605,-1.83928 0.54039,0.69263 1.84414,0.97964 -1.20236,2.01393 1.65851,4.38807 1.97588,1.49609 1.10868,0.87175 4.15818,0.79768 2.36876,-0.14787 -0.0674,-2.37295 0.32485,-2.82201 1.9842,-1.29361 -0.65139,-2.7241 3.36112,0.90324 3.44892,-1.14692 1.85979,0.36194 2.90697,-2.67906 -0.43785,-2.81422 0.3283,-2.55623 -1.83862,-1.12579 -1.82256,-3.5546 4.68295,0.67784 -2.04225,-2.90862 1.56856,-2.35534 0.44028,-0.30299 2.62317,0.65171 4.10873,-0.87318 1.85285,-0.38224 3.0309,1.94309 3.74622,-0.31082 2.06565,-2.26318 6.38166,-0.031 9.07534,-0.91251 0.32534,-0.89647 -1.38033,-2.50573 -1.923,-4.34419 -2.79668,0.84014 -4.18552,-0.49159 -4.04818,-1.57565 -1.29844,0.44753 -1.50989,-2.55722 -3.39183,-3.16746 -2.1902,0.493 -4.53579,-0.22165 -6.42653,-1.28306 -2.50816,0.62242 -5.45361,-0.80227 -4.69096,-2.45652 -1.23231,-2.14456 -2.72992,-2.88448 -1.38017,-4.44113 -0.25419,-3.04872 -4.08709,-5.54264 -0.56959,-6.72417 0.22739,-1.98485 -1.19074,-4.17711 -0.17888,-5.15511 -3.35726,-1.40007 1.23332,-3.47475 0.39791,-4.62993 0.0635,-2.8069 2.91662,-2.09529 5.1674,-3.14977 1.72007,0.28256 3.81062,-0.63404 5.00754,-0.30991 2.10461,1.06216 5.77304,0.36575 7.86788,1.17342 2.46402,-1.0684 6.68681,2.13336 9.53981,1.75335 -0.20521,0.51948 1.1379,0.17403 1.13647,0.6099 z"
       id="path3437"
       inkscape:connector-curvature="0" />
    <path
       style="fill:#ffffff;stroke:#007d00;stroke-width:0.5pt"
       d="m 389.816,147.75992 c 1.17204,1.5014 2.38738,0.47729 4.11016,1.53383 3.26606,-0.38176 -0.59129,2.42173 2.85728,2.36492 2.81776,0.82306 6.06558,-1.71238 6.0113,0.27791 1.24632,-0.41963 3.07149,-2.08996 2.76958,1.41765 -1.67675,2.74133 -2.2017,4.60672 -1.49948,7.18141 -0.77388,3.03511 -1.99273,3.23913 -2.79905,7.01871 1.17149,-1.01148 0.0919,2.70405 1.29517,1.49794 0.77398,-1.67088 0.70946,0.0453 1.66609,0.39987 1.53856,0.38775 -1.10433,4.03531 -0.21336,5.43885 0.87859,2.33948 -2.2552,6.65323 0.0762,8.83511 -2.45944,1.28268 -1.36362,3.79428 0.58064,6.23667 1.18531,2.02304 3.57667,4.71585 4.90412,4.47293 1.93699,3.43909 4.64201,3.7949 6.36499,4.66261 5.54196,5.21513 12.69004,9.49641 17.12892,12.29928 4.09195,1.58501 5.65015,3.08112 5.56878,2.67477 1.65855,1.00757 9.46635,2.36563 7.05984,2.39815 0.58744,0.49519 5.02472,2.35078 3.02331,2.26967 2.894,1.17896 2.13972,0.85187 1.53446,1.39996 -2.14273,0.48041 -10.28042,-1.45298 -11.78034,-2.21556 -0.80256,0.0832 -2.7679,-0.21514 -5.79286,-1.69742 -1.06053,-0.26725 -3.63088,-2.71901 -6.53861,-1.97612 -2.66877,-1.69915 -5.00343,-2.03115 -7.20304,-1.46125 -1.69509,-1.13306 -5.91488,-0.0321 -7.54452,-1.3433 -0.83733,1.25751 -3.97194,-0.56028 -5.61534,1.33043 -2.50804,-0.97531 -4.38865,1.75403 -3.42716,3.46558 -3.32509,0.88737 -1.10545,4.11318 -0.83483,3.6715 -0.42735,2.42553 1.51349,4.45633 -1.07828,6.20411 0.25226,2.02879 3.3966,5.78276 1.09666,7.25152 1.66913,0.19122 2.36554,5.11253 2.42761,4.12214 2.51973,1.00774 3.08828,1.45948 1.24818,3.44691 4.45993,0.47954 -0.1608,2.8165 -0.20355,4.07617 -1.25489,0.53954 -1.86188,-2.09777 -4.0729,-0.99481 -1.29734,-1.91977 -4.58953,-0.11422 -4.81435,-2.35734 -1.13378,-0.29289 -1.61694,-2.20487 -2.91063,-2.32506 -0.64476,-2.30614 -5.21662,0.3484 -5.41392,-1.86114 -1.46803,0.22245 -1.67624,-3.71324 -3.58283,-1.4392 -1.23766,-1.97611 -5.75268,1.65271 -4.42815,-2.24163 1.51113,-1.83358 -1.92856,-2.78897 -2.423,-2.93835 -1.42692,-0.94997 2.38042,-1.99793 2.44718,-3.38649 -0.40728,-2.21633 -2.51419,-2.3922 -2.23375,-4.33791 -1.21726,0.0431 -2.92238,-1.30433 -4.42709,-0.8704 -2.67143,0.66577 -4.7776,-0.89346 -8.18183,0.13895 0.59691,-0.42614 -1.52393,-1.32646 -0.61342,-2.94087 -1.82658,-1.14532 0.42174,-2.86035 -2.17213,-2.91208 -0.63579,-2.18672 2.88508,-2.53526 -0.0819,-2.55309 -2.35965,-1.61048 -4.3356,-0.15098 -6.89207,-1.51793 0.01,-2.44846 -2.17244,-3.83412 -3.36294,-5.13405 -1.87676,-3.27157 2.83454,-2.69294 2.10579,-5.32704 -2.63606,-1.25366 1.89105,-1.95499 -1.46091,-2.47142 -2.75023,-1.2728 -0.6138,-2.18086 0.58242,-1.69406 1.48548,-1.92123 5.20804,-1.39537 9.02995,-1.93954 4.83995,0.25086 3.23323,-2.38097 4.49914,-2.93133 1.34466,-1.07921 4.5906,-3.38245 1.45527,-3.88092 0.34063,-2.00398 3.60995,-2.04791 1.46087,-4.10994 -2.5736,-0.54901 0.94326,-2.40612 -1.97596,-3.20859 4.1802,-0.65372 2.7458,-2.03772 0.40483,-3.53746 -2.6916,-1.04893 -1.68507,-4.14969 0.80953,-3.51006 -3.84977,-1.83345 -0.99466,-3.93151 -1.0834,-5.26386 -2.92376,2.32348 -3.30395,-4.12243 -5.40626,-3.26532 -0.95069,-1.19565 -2.97255,-5.95495 1.08602,-5.81696 3.14821,0.12673 5.73069,-1.51841 7.51006,-4.06052 2.71803,-0.89786 3.41223,0.0857 6.61869,-1.08461 1.97099,2.13673 5.51369,-1.98228 8.58023,-3.79361 -0.2857,-3.76227 1.94401,-2.02829 3.65403,-4.50747 0.96077,-0.19371 0.58599,0.45403 0.10055,0.81916 z"
       id="path3439"
       inkscape:connector-curvature="0" />
    <path
       style="fill:#ffffff;stroke:#007d00;stroke-width:0.5pt"
       d="m 232.88992,85.437615 c 2.08098,0.966918 -2.42522,1.060777 5e-5,-5.5e-5 m 15.19492,0.241852 c 0.62405,0.478053 -1.21919,0.104722 3.8e-4,-1.07e-4 M 228.4634,84.326422 c 0.48622,0.817603 -2.86625,0.448796 -0.51195,0.06082 0.2151,0.02253 0.29225,-0.09013 0.51248,-0.06057 m -40.37397,-5.378235 c 0.74724,0.869509 -2.52402,0.145914 2.3e-4,-7e-6 m -3.23558,-0.249921 c 1.34148,0.180357 2.0232,0.955877 2.06094,1.129004 -0.27932,0.283284 -1.82936,-1.025501 -2.06084,-1.129243 m 43.62178,-9.75731 c -0.0357,0.272867 -1.02683,0.02533 4.6e-4,-1.5e-4 M 362.70711,86.40507 c 0.91631,0.457309 -0.78737,-0.125515 8e-5,-1.7e-4 M 224.31227,66.795414 c 2.23688,0.383477 -1.13537,0.478475 -4e-5,-6.82e-4 m 10.46383,0.563102 c -0.1197,0.623463 -1.98032,-0.222818 2.9e-4,4.16e-4 m -14.70667,-1.166067 c 0.25401,0.652282 0.42246,1.184542 1.03178,1.321909 0.48216,0.674488 2.95162,0.6596 0.96182,1.232336 -1.67771,1.411368 -5.16523,-2.256297 -1.9828,-2.555797 m 65.55529,2.811955 c 0.3937,0.105612 -0.34526,0.05866 4e-5,1e-5 m -63.4278,-5.146977 c 0.0207,0.460159 -1.37278,-0.07821 -0.002,8e-5 m 138.67873,16.686132 c 2.51619,0.982529 5.33649,1.751688 7.41889,3.17545 1.29717,-0.0537 1.71069,2.665747 3.19259,3.445869 0.51198,1.20888 2.36542,2.827249 2.1435,3.629105 -1.79385,-0.888596 -4.64175,-1.554667 -5.53336,-1.62418 1.68851,0.01343 -0.21846,-0.837136 -1.13726,-0.698826 -0.40128,0.405049 1.67071,1.536143 -0.66601,0.75862 -1.75187,-0.259103 -3.41199,-1.073134 -2.8814,-2.544171 -0.87563,-1.042899 -1.06024,-0.926229 -2.29651,-1.264523 -0.16382,0.250918 -2.47936,-0.121983 -0.77979,0.69527 1.57463,1.08026 -2.3884,-0.816075 -1.5902,-1.733558 -0.29377,-1.860027 0.58772,-3.729303 2.17024,-3.839221 M 219.9389,63.002389 c 0.79689,0.450277 2.19948,0.585405 0.85977,1.148631 1.30327,1.295014 -1.78008,1.529459 -1.41685,-0.0122 -0.15218,-0.266583 -0.17003,-1.298616 0.55915,-1.13658 m 18.51508,0.66157 c 1.69588,0.07444 1.44742,0.934469 -0.0234,0.333794 -1.01564,-0.153025 -1.31437,-0.289066 0.0292,-0.33343 m -6.33886,-0.490027 c 1.8563,0.488146 -0.041,1.570949 -0.19226,2.319631 -1.30599,1.283663 -6.08336,0.54825 -5.44238,-1.524038 2.34181,0.06906 3.85611,-0.595085 5.62303,-0.794618 m -8.05571,-1.466731 c 1.31808,0.313354 1.94923,1.730169 -0.39753,0.875727 -0.84275,-0.32012 -3.11009,-1.173338 -0.83539,-0.752643 0.43365,0.02985 0.9254,0.01868 1.23089,-0.12344 m -3.9131,-0.440158 c -0.53828,0.291785 2.47536,1.637008 -0.0519,1.211992 -2.29906,0.356305 -1.60876,-1.007859 0.0515,-1.212462 m 15.89786,-1.37481 c 0.61432,0.193538 -1.32258,0.03845 -1.1e-4,-5e-5 m -1.96926,-0.443722 c 1.63208,0.894344 -2.47902,0.696517 -0.6891,0.07604 0.24002,0.07375 0.48261,-0.05255 0.68894,-0.07642 m -3.88035,-1.057338 c -0.22995,1.932101 -4.72189,0.337134 -6.1857,1.468292 -0.71952,0.36255 -2.15795,-1.111899 -0.1632,-0.70377 2.15799,-0.182812 4.70975,-0.03224 6.3535,-0.76577 m 2.52876,-1.083303 c 1.94948,0.940992 -3.14489,0.906105 -0.75268,0.43164 0.29632,-0.197341 0.61029,-0.06936 0.76355,-0.431789 M 212.56691,54.98977 c -0.13692,0.294291 -1.74973,0.920517 -0.12248,1.691903 0.44709,1.136419 1.80031,2.125474 2.64834,2.249145 0.86461,0.135228 -1.55244,0.512885 0.25902,0.561766 -2.44275,1.019421 -4.30955,-1.347623 -6.11474,-2.435634 -0.675,-0.521503 2.35865,-1.628753 3.32559,-2.067369 m 10.28273,-1.314362 c 1.67918,0.148407 2.84905,0.840909 2.794,1.649523 1.10346,0.353032 -1.27072,0.784753 -0.48519,1.412583 -1.24377,0.860487 -5.23438,0.318348 -6.96872,-0.433339 -2.08401,0.122709 -4.66979,-1.409137 -2.39302,-2.387604 2.08436,-0.617221 4.71049,-0.07489 7.0518,-0.2406 m 54.46693,-2.435613 c -0.38868,0.432364 -1.79733,0.456958 -6.3e-4,5.48e-4 M 215.36378,39.680359 c 0.26876,-0.149606 0.23374,-0.130015 -2.1e-4,4.7e-4 m -0.7602,-1.141424 c 0.86524,0.307316 3.8623,1.035417 1.35805,0.55727 -1.50599,-0.602141 -3.71606,-0.06982 -1.61637,0.53328 4.4198,1.4733 -2.15225,0.928737 -2.51126,2.658618 -0.72984,0.658262 0.45529,1.988276 0.19175,2.96664 1.47345,2.592623 5.96353,2.341734 8.8211,2.231778 2.49818,-0.08709 5.82435,0.845222 6.62631,-0.80618 3.93941,0.369898 5.7516,1.868014 8.8983,0.642127 3.06846,2.213007 8.32241,0.223068 11.49137,2.645187 5.09532,1.050448 11.93956,1.164137 14.65996,4.661424 2.67447,0.674208 4.03755,-1.401909 6.30808,-1.450242 0.42454,0.990697 1.91097,1.546534 1.11795,2.151711 0.0889,0.791591 0.80494,-0.725732 1.28844,-0.86777 0.83777,-0.581777 2.61118,-0.04106 3.26082,-0.966598 1.21548,-0.594795 3.26904,-0.674942 3.75035,-1.760514 2.55091,-0.380809 -1.47207,1.624048 0.92622,2.366442 3.42356,0.373234 6.87705,1.764264 10.3239,2.20075 1.03114,1.481689 4.05713,3.220113 5.42779,1.54396 1.21626,0.706905 0.30369,-0.601809 0.93733,-1.315866 2.39681,0.5587 4.08682,1.954875 4.71723,4.131104 0.99364,0.470888 3.80851,1.943102 2.55065,1.981761 -0.50087,-0.301804 0.21743,-0.495432 -1.01659,-0.625789 -1.65932,0.37755 -1.12699,0.370953 -1.42262,-0.564137 -1.4025,0.07616 -0.0208,0.804376 -1.5363,0.86452 -1.71761,-0.370287 -1.80905,1.248075 -1.40009,1.918852 -0.27154,0.703195 -2.03053,-0.500377 -1.77689,0.18691 -1.41129,0.265858 -2.50193,0.979481 -3.96799,1.041575 0.26572,0.05207 -1.89717,0.550244 -0.49177,-2.8e-4 -1.74345,0.294077 -0.77132,0.272348 -0.70571,0.510978 -1.25511,0.340941 -1.78383,0.01939 -2.32133,-0.147999 0.0941,0.838206 -1.35568,0.99777 -1.99769,1.807804 -1.26287,-0.577042 -0.42851,0.902021 -1.96684,0.03457 -1.80149,-0.352158 -3.38983,0.487054 -3.50659,-0.109163 0.37759,-0.510262 -2.30366,-0.154224 -1.39946,0.08607 -0.9583,0.427394 -4.56689,-0.04696 -2.13448,0.58435 1.14377,-0.01583 -0.1456,0.323287 0.59577,0.8238 0.25254,0.268873 0.30077,-1.498821 2.24051,-0.977982 1.8752,-0.481352 4.29599,1.600348 5.31715,0.800917 -1.30087,-0.854565 0.067,-0.978658 0.53501,-1.109045 0.75366,0.622831 0.81023,-0.735657 2.04597,-0.857767 0.88195,0.01865 1.94799,-0.258164 3.11904,-0.88926 1.85594,-0.322039 5.22023,-0.983686 6.43878,-1.512539 0.84553,-0.392855 -0.75083,-1.75039 0.89389,-2.083521 1.93589,0.457402 2.6355,0.329154 3.65451,0.83487 2.0041,-0.05154 0.49965,-0.01182 0.0465,0.181059 2.06479,-0.12024 0.48858,2.975714 0.9438,3.660339 0.63755,1.542848 -0.90386,1.794588 -1.70354,2.460421 -2.26332,0.517449 -5.52933,1.034131 -7.93355,0.84596 -1.76154,-0.563742 -0.21894,0.864255 0.2953,0.99767 1.16005,0.274242 4.22851,0.339212 4.07068,0.03437 4.43559,0.480581 11.74696,-0.606959 16.22693,2.666407 1.63178,0.677691 -2.38117,0.489974 -0.31507,1.45659 1.80698,1.16138 0.99929,1.653401 -0.58502,1.28344 0.57901,0.521648 -1.19952,0.599352 -0.60193,0.88333 -1.34899,-0.02958 2.06841,1.258014 0.24531,1.26014 -1.43414,0.5279 0.0765,0.345731 0.56021,0.25776 0.46369,0.03332 2.68935,0.561286 0.89123,-0.13743 0.62948,0.160826 -0.51733,-1.456131 1.26661,-0.99385 -0.41521,-0.738785 0.95521,-0.894468 1.08994,-1.432393 1.01683,-0.282767 5.64493,0.661123 3.3448,0.189191 2.58171,-0.772829 7.22425,1.593506 10.09606,3.233402 4.45195,2.362806 9.90584,3.901078 13.23915,7.38696 1.21046,0.583489 1.64062,1.940321 3.42013,1.89649 3.75343,1.646632 5.0954,0.161678 6.9555,-0.746848 1.64833,0.117448 2.11321,-1.229891 4.41399,-0.03381 1.56447,0.392961 2.84229,0.831263 0.95368,0.568761 -1.59484,-0.619135 0.31752,0.344216 1.01166,0.644221 1.80575,0.192742 2.77707,0.126848 3.47002,-0.70723 1.45352,-0.08115 2.2004,1.597401 0.73688,1.797006 -1.24837,0.188766 -0.73888,1.198694 -1.82371,-0.01184 -0.46327,0.649183 1.05757,0.917603 0.85948,2.419738 1.08572,2.570585 1.28536,4.720652 2.3466,7.215088 -1.54166,-0.11363 -1.97196,0.97887 -3.44396,0.9155 -1.41145,0.15844 -2.63368,0.4207 -3.1056,1.353 -0.77162,0.38774 -1.15307,1.28618 -2.93766,0.1141 -1.81187,-0.95554 -1.89161,-1.36662 -2.11837,-0.29619 -0.82438,0.15696 -2.4064,0.19102 -0.4395,2.22416 1.92274,3.03732 4.13588,3.02941 6.50427,4.98873 1.45082,2.34812 2.22684,4.79583 5.53673,6.60498 -2.23577,0.20526 -3.04705,-3.13049 -4.82149,-2.62413 0.30998,1.04722 -5.41944,-1.30251 -2.3544,2.08882 1.67942,3.55383 3.64207,6.26904 7.26318,8.54235 4.00591,0.18134 4.01521,7.25207 0.63851,4.75366 -1.71143,-0.18483 0.88449,2.86503 -1.65989,2.50393 -1.92088,1.71046 -5.80744,-0.50702 -5.08893,3.91877 -1.84978,4.83897 -7.23822,-2.64164 -10.12987,-2.85319 -1.99598,-2.00394 -2.33252,-2.75633 -7.00923,-6.40671 -1.64369,-3.16039 -2.54635,-3.39091 -7.01934,-5.18915 -1.37707,-2.53768 -4.85824,-5.2537 -2.69066,-7.32291 6.80204,4.46189 -0.90577,-2.34105 3.07166,-1.77597 0.23724,-0.65022 -3.50784,-3.42267 -6.71847,-5.85201 -4.82858,-2.60416 0.87672,-4.17117 -0.13079,-3.40837 -3.9728,-3.034332 -7.06953,-1.5309 -11.78287,-4.46963 0.63214,1.92661 -0.93171,3.08268 -8.36194,0.654641 -0.19056,4.155769 -6.35806,0.17133 -11.39313,0.676683 -1.51024,1.989656 -5.48825,3.566396 -7.97606,5.593766 -3.24333,1.45524 -3.45008,-3.10012 -6.40547,-3.14339 -2.88086,-2.25663 -0.79761,8.61295 -7.01001,6.22702 -6.21936,-0.29887 -4.99596,-5.75385 -8.89086,-7.79327 -2.4982,-4.086602 -6.5789,-7.887339 -11.87243,-6.153357 -2.93697,-0.623339 -5.04809,-0.856986 -7.96099,-0.579621 -2.24864,-0.960871 -4.19142,-3.045903 -5.11525,-4.5665 -1.35207,-0.459209 -1.65307,-1.942277 -2.22431,-1.811663 1.46576,-1.008068 4.34584,-1.21524 6.24996,-0.328636 2.23774,0.436686 2.30951,-1.811322 0.58699,-2.245192 -0.63051,-1.981538 -2.85287,-2.866984 -4.93966,-1.875554 -1.24914,-0.460821 -1.81025,-1.208637 -2.77014,-2.269658 -0.59416,-1.384748 2.31551,-2.054733 1.09232,-3.064824 0.42747,-1.324251 3.84198,0.07163 4.63706,-1.30546 0.92982,0.128594 1.6884,-2.001051 0.80322,-1.389309 -1.10024,0.513583 -3.32195,1.790802 -3.96378,1.26345 -0.8576,-0.705358 -0.76699,-0.642004 -0.13657,0.10343 -0.84245,1.219219 -0.54078,-0.615503 -1.81179,-0.834486 -2.38938,0.862559 -5.34121,-0.774298 -6.94717,0.295408 -0.36611,0.894901 -2.29181,-0.140785 -2.59106,0.07229 -1.05321,-0.329026 -3.90819,-2.658492 -2.24253,-0.910422 -2.31139,-0.889403 0.277,0.213899 0.4332,0.493102 -2.48384,-0.03012 -2.69815,-2.276905 -1.10893,-3.338601 0.85835,-0.394407 1.74526,1.10435 1.87637,0.613097 0.16431,-0.237274 2.69405,-0.4035 2.64039,-0.489402 -0.31481,-0.659515 -0.17773,-0.297265 -1.52822,-0.729537 -0.51263,0.425298 -1.95662,-0.569786 -2.94499,-0.252303 0.47077,-1.076946 2.10762,-0.687939 2.32574,-0.762038 3.47147,-0.128811 7.04618,-0.833439 11.18385,-0.0016 2.89245,0.35699 4.02448,-1.390932 5.92694,-1.997304 1.22569,0.279975 2.29919,-0.727962 2.33715,-0.54813 -0.75195,-0.144905 -0.23512,-1.130356 -1.25199,-1.51902 -1.15991,-1.370493 -1.63182,0.602277 -2.51799,0.771664 -0.84811,1.524734 -5.28233,1.260636 -6.95289,0.110736 1.21161,-0.488521 -1.07728,-1.305703 0.89935,-1.422898 1.74362,0.03207 3.09681,-1.120476 2.167,-2.510536 0.81256,-0.891184 0.70759,-0.840036 -0.0901,-1.573361 -0.76064,0.187053 -3.40545,0.251101 -3.13204,-0.171036 1.85846,-0.159728 1.18557,-0.692834 0.42683,-1.53506 -0.68069,-1.295539 -4.09628,-1.257866 -4.243,-3.04219 -0.81438,-0.736818 -3.11496,-1.066678 -3.18037,-1.559515 1.67648,-0.230164 -0.57367,-1.878438 -1.21801,-2.712421 -1.37808,-0.569578 -2.6186,-1.907499 -4.19374,-2.884736 0.91345,-3.031538 -5.62807,-2.767662 -7.54433,-1.873028 -1.86095,0.878443 -5.01574,1.014392 -6.41004,-0.834971 -1.54601,-0.794869 -1.68775,0.859528 -1.7519,-0.28986 -0.97293,-0.07479 -2.5937,1.214567 0.1209,0.791149 -2.05886,-0.354913 -1.84391,1.431434 -1.62772,2.885913 -0.29388,0.868496 0.59398,2.354096 -0.0413,2.72478 -1.77848,-2.485572 -0.87407,-8.079328 0.7464,-9.591466 1.57265,-1.739864 2.50913,-3.767148 4.32368,-5.156246 0.25254,-0.03459 0.41165,-0.09538 0.7641,-0.01779 z"
       id="path3441"
       inkscape:connector-curvature="0" />
    <path
       style="fill:#ffffff;stroke:#007d00;stroke-width:0.5pt"
       d="m 358.21306,212.97272 c 2.14389,0.45548 4.20483,0.98232 5.42354,1.24096 -3.2212,0.65064 -0.13892,3.19081 -0.13122,3.02496 0.24737,2.11393 0.9855,3.16562 1.09618,4.86614 0.69951,0.17788 3.09549,-0.59062 4.76092,0.23318 2.77157,0.27773 4.10009,-0.37429 6.3983,0.16466 1.06132,0.97197 2.0925,0.19834 2.13645,2.47497 0.4203,-0.15929 2.82112,2.33287 1.55769,2.50212 -0.44583,2.69208 -4.18523,2.18429 -1.57318,4.03787 1.78324,-1.39946 3.01803,2.12193 1.52548,2.81568 0.46203,3.52701 3.73216,-0.34634 4.99717,1.34618 2.06165,-1.03732 2.80056,2.2781 3.93997,2.49742 1.03395,0.52999 5.16911,-0.45097 5.26716,1.55304 1.67728,0.31684 2.02938,2.13629 2.95587,2.82938 2.65245,0.67784 5.97397,1.3971 7.18984,1.94257 1.27134,2.05652 1.53318,-1.19315 3.63284,-2.20311 -2.26922,-0.8312 -2.58469,-2.51169 0.1,-3.8972 2.75555,-0.0142 4.4542,2.70371 7.23513,1.16356 1.71722,1.00673 3.61311,4.12849 3.21985,3.49838 1.60781,0.53419 -0.1259,1.24328 2.98795,2.04584 2.91775,-1.62798 1.9124,2.98914 4.05188,3.46215 -1.46349,1.66246 -6.48925,-0.69546 -7.17828,0.37505 -2.84733,-0.13997 -3.12865,3.10264 -4.696,1.3636 -1.84553,-0.53149 -4.33211,1.03292 -4.60966,0.81586 -2.13613,-0.55712 -3.24829,0.0923 -0.35765,1.8384 -5.17914,0.10187 0.17814,2.76742 -0.84227,2.36151 -1.27227,2.2366 5.09894,2.16553 1.72462,4.45012 -1.14736,-0.0978 -2.49482,1.09753 -3.91021,-0.07 -0.61251,2.05872 -1.03717,-0.24427 -2.4588,0.39033 -0.52571,1.93861 1.88193,3.06704 -0.53182,2.66847 -1.26365,-1.1673 -1.62873,0.75735 -3.01071,0.64662 -2.054,-0.077 0.27273,-3.34119 -1.70082,-3.53821 0.50358,-2.00207 -1.66713,0.73692 -1.99674,0.63648 -1.31626,1.38727 -0.69283,2.73512 -3.06067,3.33523 0.59188,3.14 2.24087,-0.62096 3.06092,2.78568 0.73032,1.54337 0.33738,2.86109 -1.05823,2.33752 -3.39561,0.91532 3.00919,2.14666 -1.48565,2.49236 -2.53785,3.29711 -1.98576,-1.01907 -4.07422,-0.21036 -0.68107,0.10304 -2.34095,0.89877 -5.05663,1.13103 -1.6697,-2.30996 -3.21111,2.71206 -4.09372,-0.75978 -0.62494,-1.51837 -1.31628,-1.12348 -2.70689,-2.62906 -0.0639,-2.38147 1.57987,-3.47832 -1.7766,-3.73372 -1.58348,0.64621 -2.01955,2.77827 -4.29421,2.57102 0.60493,3.30111 0.94069,5.80912 0.27005,8.74464 -0.22966,1.9152 -0.0416,4.33335 -2.35533,1.56435 -0.83234,2.95662 -2.97252,-0.95959 -1.80079,-2.67884 -1.16946,-0.15485 -0.64439,-1.46225 -2.19088,-0.90244 -1.49785,1.82647 -3.04944,-1.20693 -3.22643,0.80369 -1.61893,-2.67186 -3.75192,-1.94613 -6.03016,-1.27352 -1.08495,0.78091 -4.83724,2.01383 -3.27699,2.76279 -1.75935,1.97302 3.03856,1.9371 2.50425,3.05062 3.63787,0.79391 -2.5501,2.29827 -1.49875,2.26653 -2.51989,-1.47179 -0.79702,4.18162 -4.02427,1.50362 -2.3434,0.98446 -1.33287,-1.80202 -2.18584,-2.49027 0.98902,-1.51935 0.55994,-3.31436 -0.99574,-3.92705 -0.94207,-0.52355 -1.92196,0.7769 -3.05587,-1.59111 -0.60793,-0.25762 -3.17738,0.56633 -1.94098,-1.34458 -1.96035,0.25858 -0.81713,-3.99296 -3.45097,-2.90958 -2.24625,-0.067 -2.0664,-3.05648 -4.03526,-1.73307 -1.44609,0.47786 -2.54096,-1.15114 -4.34038,1.88099 -2.89084,2.85545 1.03523,-2.92056 -0.20596,-4.44734 3.5215,-0.56269 0.61505,-4.85278 -2.75808,-2.2013 -1.33648,1.90442 -1.96169,2.51439 -5.05706,2.80596 -2.01476,-1.51772 2.7883,-3.15305 1.96131,-4.31999 2.70958,-1.86347 1.12433,-3.36822 2.38936,-4.44977 -0.32062,-2.79843 5.87077,-2.1835 3.9561,-3.72508 2.49221,-1.61376 2.04762,-3.39414 -0.89999,-3.28812 -0.24008,0.38757 -3.86018,-1.43877 -0.50483,-1.34518 2.72398,-0.40161 4.2451,-0.10121 2.73632,-2.25706 -2.17834,-2.88236 4.34852,-3.04843 5.16621,-1.84998 2.47171,-0.51536 2.80035,-2.81238 0.62051,-3.64725 -1.5241,-1.58365 1.98643,-3.90379 -1.54409,-5.21001 2.06637,-2.61307 3.17859,4.01037 3.31146,-0.0601 1.70108,-2.62172 -1.39705,-3.35389 -2.98362,-4.68512 -3.87812,0.40938 -1.75815,-3.41019 -5.09854,-3.48195 -2.15212,-0.18959 -4.42187,-3.16673 -3.6313,-5.14784 2.72458,-1.01948 4.46966,-2.4903 5.94088,-1.522 2.19759,-0.18599 2.08623,-0.12089 3.65498,-0.34712 -0.24548,-2.99524 4.25381,-0.18209 5.29337,-2.65878 3.16002,-1.5879 1.6745,-5.14712 6.62354,-2.86479 2.25213,2.38035 4.25919,-1.71327 6.25772,0.16084 -1.2e-4,-1.1911 -2.04227,-2.48528 0.72202,-3.24344 -0.2489,-1.16871 3.14287,-0.41337 3.0265,-0.79831 z"
       id="path3443"
       inkscape:connector-curvature="0" />
  </g>
</svg>
